<?xml version="1.0" encoding="UTF-8" standalone="no"?>
<svg
   xmlns:dc="http://purl.org/dc/elements/1.1/"
   xmlns:cc="http://creativecommons.org/ns#"
   xmlns:rdf="http://www.w3.org/1999/02/22-rdf-syntax-ns#"
   xmlns:svg="http://www.w3.org/2000/svg"
   xmlns="http://www.w3.org/2000/svg"
   xmlns:sodipodi="http://sodipodi.sourceforge.net/DTD/sodipodi-0.dtd"
   xmlns:inkscape="http://www.inkscape.org/namespaces/inkscape"
   inkscape:version="1.0 (4035a4fb49, 2020-05-01)"
   sodipodi:docname="glug.svg"
   id="svg8"
   viewBox="0 0 640 640"
   version="1.1">
  <defs
     id="defs12" />
  <sodipodi:namedview
     inkscape:current-layer="svg8"
     inkscape:window-maximized="1"
     inkscape:window-y="28"
     inkscape:window-x="0"
     inkscape:cy="320"
     inkscape:cx="320"
     inkscape:zoom="1.3375"
     showgrid="false"
     id="namedview10"
     inkscape:window-height="1052"
     inkscape:window-width="1920"
     inkscape:pageshadow="2"
     inkscape:pageopacity="0"
     guidetolerance="10"
     gridtolerance="10"
     objecttolerance="10"
     borderopacity="1"
     bordercolor="#666666"
     pagecolor="#ffffff" />
  <metadata
     id="metadata2">
    <rdf:RDF>
      <cc:Work
         rdf:about="">
        <dc:format>image/svg+xml</dc:format>
        <dc:type
           rdf:resource="http://purl.org/dc/dcmitype/StillImage" />
        <dc:title />
      </cc:Work>
    </rdf:RDF>
  </metadata>
  <g
     style="stroke:none;stroke-opacity:1"
     id="g6"
     transform="translate(0 -127.67)">
    <path
       style="stroke:none;stroke-opacity:1"
       id="path4"
       stroke="#000"
       fill="#008"
       d="m259.54 127.82c-1.1127 0.66578-1.2882 1.4296-1.7807 2.5674 0 0-1.9791 4.5602-1.9791 4.5602s-2.7749 6.3842-2.7749 6.3842l-4.7106 10.944c-0.47881 1.0488-1.8628 4.0289-1.954 5.0162-0.10489 1.1172 0.36937 2.0452 1.5504 2.2254 0.98955 0.15048 1.7032-0.28501 2.2322-1.0944l2.4579-5.4631 8.3405-19.381c0.66579-1.5504 2.9117-5.4973-0.26221-5.8917-0.46285-0.057-0.69086 0.0251-1.1195 0.13225zm39.881 7.8115h4.6194l0.62475-4.1041-2.9641-0.13224-1.6553 0.12996-0.62474 4.1064zm-26.677 0.22801-0.22801 4.7882v10.032c-1.7032 0-5.3422-0.55178-4.8748 2.2778 0.28045 1.6918 2.1273 1.8104 3.5068 1.8263h7.0682l3.8761 0.22801h6.6122s0.18697-7.7523 0.18697-7.7523c-0.0456-0.57686-0.22573-1.5048-0.6179-1.9426-0.72507-0.80943-2.3895-0.69999-3.0234 0.171-0.6065 0.83451-0.64982 4.2866-0.64982 5.4198l-7.9803-0.22801v-9.1203l0.21889-2.7361v-2.7361c0.96675 0 2.841 0.11856 3.6481-0.29869 1.4729-0.76383 1.4729-2.7429 0-3.5068-0.75242-0.38989-2.0977-0.29869-2.955-0.29869l-4.5602-0.22801c-1.1058-0.0114-3.37-0.12996-4.2683 0.48794-1.0922 0.74558-0.92115 2.6608 0.18925 3.2856 0.83906 0.47198 2.8387 0.33061 3.851 0.33061zm-38.077 1.3316 0.90975 10.525c0.0114 0.55178 0.0182 1.2996-0.14593 1.8241-0.22116 0.70226-0.70454 1.2974-1.229 1.8013-2.1364 2.0452-5.4266 2.0658-7.3943-0.24397-1.0808-1.2723-0.91887-2.3439-1.0967-3.8374 0 0-0.84819-9.1203-0.84819-9.1203 0.94852-0.0433 2.6586-0.18925 3.2833-0.97587 0.30325-0.3785 0.35569-0.83451 0.35569-1.3042 0-1.4661-0.89379-2.0019-2.271-2.011l-4.1041 0.39446c-0.88923 0.0661-2.1524 0.0479-2.939 0.51301-1.1309 0.66579-1.2312 2.4374-0.20065 3.2149 0.52898 0.4013 1.1446 0.38078 1.7716 0.39674 0 0 0.87327 9.5763 0.87327 9.5763 0.24169 2.4078 0.28045 3.9423 1.9381 5.9259 3.5182 4.2181 10.68 4.1794 14.214 0 2.2755-2.6928 2.0224-5.1963 1.7101-8.434 0 0-0.5267-5.4722-0.5267-5.4722v-2.4762c0.25081-0.83223 1.2153-0.69771 1.7237-1.6713 0.24853-0.47426 0.26905-1.0374 0.13681-1.5482-0.41954-1.6166-1.8765-1.3794-3.1967-1.3726-1.172 5e-3 -5.5087 0.31465-6.3318 0.91431-1.1013 0.80031-0.90747 2.6608 0.4127 3.3814 0.92343 0.44233 1.9859 0.16416 2.955 0zm-24.169 2.5446 1.368 10.488-8.8877-10.032c-1.2016-1.2905-2.1433-3.0781-4.1087-2.9253-1.042 0.0821-4.2068 0.54038-4.9523 1.1332-0.94168 0.75014-0.81855 2.499 0.21432 3.1214 0.59966 0.36025 1.9654 0.26676 2.6859 0.26676 0 0 1.0785 8.4363 1.0785 8.4363l0.9736 6.1562c-2.7999 0.32377-2.1775 2.8934-1.498 3.4817 0.75927 0.65666 2.3895 0.45146 3.3221 0.33061 1.2791-0.16644 4.7631-0.47881 5.6478-1.2244 1.058-0.88695 0.90519-2.752-0.41497-3.2833-0.92571-0.39445-2.2208-0.11629-3.1807 0l-1.368-10.477 10.78 12.08c1.2084 1.3042 1.7511 1.0352 3.3563 0.78435 0.42182-0.0661 1.083-0.10032 1.3635-0.46058 0.29413-0.37849 0.19381-1.0192 0.13453-1.4592l-0.49022-3.4201-1.9198-13.68c2.882-0.33517 2.2322-3.1579 0.90063-3.7074-1.1127-0.45829-5.4927 0.27817-6.8288 0.53582-3.3472 0.64755-2.5081 3.0052-1.5641 3.6869 0.86643 0.62474 2.4146 0.40585 3.3882 0.16872zm-15.961 19.609-1.14-5.2442c2.1684-1.0899 1.4022-3.4999-0.45602-3.7279-0.96447-0.11857-3.0986 0.39901-4.1041 0.61334 0 0-4.5602 0.97359-4.5602 0.97359-2.3827 0.85731-1.6827 3.2856-0.44462 3.7963 1.0944 0.45146 4.526-0.36025 5.6888-0.7433l0.45601 2.5081c-2.8204 1.3566-3.7872 2.0658-7.0682 2.0521-4.3413-0.0182-5.5383-2.8683-6.2451-6.6122-0.45146-2.3986-0.61563-4.0403 0.91659-6.1562 1.6029-2.2117 5.951-3.8488 8.5206-2.6061 1.6189 0.78206 2.0202 3.2514 4.0996 2.4374 2.0247-0.79347 0.86643-4.6468 0.45146-6.2155-0.18697-0.70911-0.44918-1.3977-1.1537-1.7443-1.4319-0.69999-2.3416 0.80031-2.7977 1.0397-0.39901 0.16645-1.4661 0.0274-1.9677 0-4.7722-0.0319-9.1203 1.327-11.371 5.9487-1.5276 3.1351-1.3224 5.3787-0.66806 8.6643 0.27817 1.3954 0.55406 2.8091 1.1674 4.1041 1.5368 3.2286 4.583 5.2009 8.1353 5.2442 3.1397 0.0365 5.5543-0.1482 8.4363-1.5892 1.4889-0.74559 2.7543-1.7853 4.1041-2.7429zm105.8-16.645s-0.26677 2.7361-0.26677 2.7361-0.41726 6.1266-0.41726 6.1266c-1.3931 0.0296-5.3901-0.4355-6.3728 0-1.311 0.51074-1.6553 2.7064 0 3.5478 0.82995 0.42181 4.355 0.54722 5.4608 0.5951 0 0 1.8241 0.19837 1.8241 0.19837l4.7882 0.26905 2.0521 0.2052c0.80487 0.0182 2.0133 0.0684 2.6836-0.41953 0.99867-0.72507 0.99867-2.5035-0.18925-3.2423-0.91431-0.56774-4.9158-0.66807-6.1425-0.66807l0.20749-3.1921 0.70455-10.032-5.0162-0.27361c-1.0078-0.13908-2.9208-0.37849-3.851 0-1.2312 0.5495-1.2426 2.7247-0.20064 3.4452 0.69542 0.48338 3.7781 0.68403 4.7357 0.70455zm17.785 1.368-1.14 9.1203c-2.5354-0.6635-3.5113 1.6531-2.5993 2.939 0.55406 0.78435 1.482 0.97132 2.3713 1.1013 1.27 0.18241 4.8839 0.77751 5.9031 0.22117 0.97359-0.53354 1.2563-2.141 0.54038-2.9937-0.52442-0.62702-1.3544-0.74103-2.1114-0.81171l0.62018-4.5602c0.12996-0.99183 0.073-1.8514 0.81627-2.6289 2.4169-2.5332 7.2598-2.2254 7.4467 1.0329l-0.6749 7.0682c-0.67947 0.016-1.3931 9e-3 -1.9791 0.4583-0.90063 0.72962-0.93711 2.2732 0 3.0416 0.82539 0.71138 3.9993 1.0032 5.1712 1.0511 0.79574 0.0342 1.7967 0.073 2.3918-0.54494 0.83907-0.87099 0.99639-3.0348-1.4798-3.3221 0 0 0.83906-8.4363 0.83906-8.4363-0.34429-4.3208-4.0312-6.6122-8.1353-6.1152-1.27 0.15504-2.3143 0.74558-3.4201 1.327-0.016-0.45145 0.0319-1.0488-0.36481-1.3635-0.31009-0.24625-1.058-0.24625-1.4592-0.29641-1.0101-0.12769-3.2377-0.42182-4.0699 0.20064-0.89607 0.66807-1.4501 2.9778 1.3338 3.5113zm4.5602-2.0521v0.22801l-0.22801-0.22801h0.22801zm19.153 5.2442-1.14 7.9803c-0.0114 0.99412-0.0388 1.7899 0.33745 2.7361 1.1127 2.8068 4.7403 4.4416 7.6428 4.0357 1.3886-0.1938 2.2162-0.66578 3.4201-1.2996l-0.228 1.596c1.3019 0.24625 4.2911 0.99184 5.4631 0.5153 1.3224-0.5381 1.9996-3.1374-0.6749-3.7074l2.0521-13.224c-1.7215-0.0798-5.7184-1.2198-7.0454-0.64982-1.3133 0.56318-1.4364 2.4055-0.59054 3.2377 0.6293 0.62018 1.9974 0.76383 2.8478 0.83223l-0.66579 4.3322c-0.12084 0.71138-0.2166 1.8674-0.64298 2.4693-1.6097 2.1182-6.1585 2.7475-7.5425 0-0.46969-0.88239 0-2.5924 0.16873-3.6094 0 0 1.3863-8.6643 1.3863-8.6643-1.7374-0.23028-3.7667-0.75014-5.4722-0.67946-1.9404 0.0798-2.4283 1.8081-1.6553 2.9345 0.56318 0.82311 1.4228 1.0215 2.3394 1.1651zm27.361 9.5763c-1.3635 0.49934-2.6038 1.2928-3.8761 1.9814l-2.5081 1.2814c-0.5381 0.17785-1.1218 0.13452-1.5778 0.38989-1.1058 0.63386-1.343 2.5582 0 3.395 0.75698 0.47881 3.1055 0.90747 4.0859 1.1332 0.79802 0.18468 1.9358 0.50389 2.7361 0.36481 2.1729-0.38077 1.9791-2.3371 0.91203-3.7576l2.7361-1.596 2.0521 2.9641c-0.88923 0.26677-1.3908 0.6065-1.5413 1.596-0.38989 2.5651 3.8716 2.8911 5.6455 3.2696 0.63843 0.13681 1.6485 0.3329 2.2801 0.19381 1.1036-0.24397 1.7123-1.2153 1.5413-2.3188-0.18468-1.1902-1.0488-1.1993-2.043-2.3074 0 0-4.0585-5.4494-4.0585-5.4494 1.254-0.35798 2.5035-1.0625 3.6481-1.6895 2.3736-1.3019 3.0279-0.92343 3.8237-1.5048 0.99867-0.72735 0.95535-2.4214 0-3.1602-0.6863-0.53126-1.6303-0.6749-2.4556-0.86187-1.8309-0.41725-5.9442-1.6873-5.422 1.7443 0.0752 0.4811 0.20749 0.71366 0.40586 1.14l-2.4032 0.76839-1.7009-1.9084c1.1879-0.76611 1.7032-2.483 0.42181-3.4224-0.77295-0.56546-5.1598-1.6052-6.122-1.498-1.5117 0.16645-2.3394 1.7009-1.5573 3.0485l2.385 2.556c0.89607 1.1856 1.8514 2.3599 2.5924 3.6481zm-157.1-6.6122v0.22801l-0.22801-0.22801h0.22801zm200.87 7.7523-2.5833 7.5242c-0.58826 1.7648-1.27 3.3586-1.2928 5.2442-0.098 8.6438 10.609 11.859 15.664 6.5735 1.3475-1.4091 1.6485-2.7885 2.3052-4.5214l3.0074-8.8923c2.9345 0.80715 3.4908-1.9723 2.4374-3.142-0.77067-0.85503-5.0367-2.1889-6.3135-2.5218-3.297-0.86415-3.4452 1.7671-2.9595 2.6905 0.5381 1.0169 1.9107 1.4159 2.9595 1.6052 0 0-2.7361 7.7523-2.7361 7.7523-0.5039 1.5117-0.83223 3.1807-2.0612 4.2843-3.1328 2.8091-8.6164-0.0912-8.1581-4.0563 0 0 2.5423-7.7523 2.5423-7.7523 0.20976-0.62474 0.6977-2.4397 1.1811-2.7862 0.66578-0.47882 2.0703 0.39673 3.2788-0.11857 0.94395-0.40129 1.3954-1.8651 0.89607-2.752-0.40357-0.71823-1.2882-1.001-2.011-1.2791-1.4159-0.54493-5.479-2.1273-6.8152-1.5596-1.2882 0.54722-1.8013 2.9778 0.65894 3.7074zm-272.93 3.4201c0.21888 1.4091 0.90519 3.1693 1.368 4.5602 0.23941 0.7205 0.59738 1.514 0.42182 2.2801-0.57914 2.5446-4.8224 5.6706-6.9178 2.9527-0.71822-0.93027-2.4328-6.4823-2.9276-7.9689-0.22345-0.67035-0.6521-2.5674-1.3544-2.7863-0.44689-0.13908-1.3179 0.20749-1.7625 0.35341-1.425 0.47198-4.0152 0.93711-4.2774 2.6608-0.21205 1.3931 0.65438 2.2185 1.9974 2.2664 0.62018 0.0228 1.2198-0.10488 1.8241-0.21433 0.47654 2.0863 2.3508 7.8526 3.7234 9.3073 2.1205 2.2459 6.6578 2.0612 9.0451 0.35113 1.0648-0.76154 1.7123-1.6599 2.2801-2.8182 0.23029 0.40585 0.49478 1.0443 0.9736 1.1902 0.39673 0.12084 1.1378-0.13225 1.5345-0.25081 1.1765-0.35797 3.0393-0.86871 3.5683-2.084 0.17101-0.43094 0.15504-0.91887 0-1.3589-0.45602-1.4228-1.6485-1.4912-2.8843-1.1446 0 0-2.8889-8.8923-2.8889-8.8923-0.22116-0.66806-0.80486-2.8433-1.3316-3.1784-0.57458-0.36481-1.7899 0.16645-2.3918 0.36709-1.6736 0.55634-4.8634 1.1469-4.5054 3.4954 0.35797 2.3371 3.0713 1.5391 4.5054 0.91203zm-35.113 8.8923c-0.76611 0.32605-2.0293 0.78662-2.5332 1.4456-0.86643 1.1332-0.26905 2.9025 1.1651 3.1739 0.90747 0.17101 2.1547-0.36937 2.9641-0.7433 0 0 2.0498 5.0162 2.0498 5.0162 1.1127 2.695 1.669 5.137 5.0184 5.6318 3.4384 0.50846 7.6314-1.7237 10.032-4.0449 0.96903-0.93711 2.3804-2.3667 1.7169-3.8579-0.54493-1.2244-2.0293-1.3954-3.0758-0.71822-0.64298 0.41497-1.2267 1.2312-1.8423 1.7807-0.96904 0.86643-2.2162 1.6371-3.411 2.1501-0.60194 0.25765-1.6257 0.66351-2.2778 0.53582-0.96675-0.19153-1.4114-1.1264-1.7853-1.9335 0 0-2.5491-6.1562-2.5491-6.1562l5.0162-2.0863c0.69314-0.29869 1.8879-0.76382 2.4306-1.2495 1.2358-1.115 0.65894-3.0507-0.61562-3.4064-0.95992-0.26448-2.0772 0.23713-2.955 0.58598l-5.7002 2.2801c-0.19836-1.058-1.1286-3.5432-1.9016-4.2615-0.94167-0.87327-2.6768-0.6179-3.1739 0.62246-0.52214 1.3019 0.80715 4.038 1.4273 5.2351zm-37.621 128.82c-1.2768 0.58141-2.5628 1.4387-2.711 2.9641-0.20749 2.1159 1.7329 4.5305 3.851 4.7426 3.069 0.30781 4.3253-3.3928 7.5243-3.9331 1.2016-0.20064 2.752 0.5267 3.8761 0.94168l7.5243 2.8524 45.374 16.613s21.889 8.2926 21.889 8.2926l5.7002 2.1843-1.4843 2.8364c-0.51074 0.48566-2.312 0.80943-3.0758 1.0443-2.1661 0.67262-4.811 1.5824-6.8402 2.5628-7.262 3.5045-14.248 7.693-19.118 14.305-4.8566 6.594-8.434 14.246-9.7815 22.345l-0.51301 4.3322-0.22801 3.8761 0.22801 7.0682 0.20748 2.2801c0.3785 5.5018 1.2677 11.031 3.3152 16.189 2.0954 5.2807 4.9136 9.4486 8.361 13.908 5.8484 7.5653 12.094 12.237 21.405 14.563 1.8742 0.4697 5.2259 1.3726 7.0568 1.1697-0.47653 1.7146-0.0821 2.3006 0 3.8761 0 0-0.16188 1.8241-0.16188 1.8241-0.0684 0.84818-0.041 1.9358-0.96676 2.2801-0.21888 0.9508-2.3394 2.7452-2.9823 4.1041-1.1993 2.5309-0.171 4.8224-1.4433 6.3204-2.2983 2.7087-5.568 3.2879-7.0979 6.9041-0.80031 1.897-2.027 6.1904 0.36025 7.3943 0.4811 0.24397 1.0534 0.34201 1.5869 0.27361 1.5413-0.19381 2.7908-1.5596 4.7882-1.8948 2.3599-0.39445 3.297 0.47198 5.0162 0.58826 4.9044 0.33517 4.1725-4.7722 9.1203-5.2214-0.12996 0.98044-0.21432 1.2472-0.23713 2.2801v3.4201s-0.21888 2.7361-0.21888 2.7361v7.0682l0.20748 2.7361c0.56774 8.2653 2.5195 15.593 6.2383 23.029 3.8419 7.6861 9.5193 14.406 15.899 20.101 2.1889 1.9563 7.9005 6.9565 10.26 8.1718 0 0-8.434-8.8923-8.434-8.8923-3.3107-3.395-6.4777-7.0956-9.2548-10.944-6.1152-8.475-9.7405-18.815-10.849-29.185 0 0-0.41954-5.0162-0.41954-5.0162v-7.0682l0.22801-3.1921 0.20749-4.5602c0.0388-0.55178-0.0547-1.5026 0.25309-1.954 0.41953-0.61106 3.6755-1.1446 4.5556-1.384 2.7292-0.74102 6.4275-2.4762 8.6643-4.1862 0.45145 1.7876 1.5938 8.9676 1.596 10.716v4.3321c2e-3 0.90747-0.0365 2.1478 0.61562 2.8661 0.82083 0.90519 2.1387 0.15505 2.7475 2.3781 0.31237 1.1423 0.66578 4.2364 0.73418 5.4722 0.0502 0.92115 0.22345 3.0849 0.61106 3.8624 0.77751 1.5618 3.3677 0.26449 5.0663 1.7078 1.6097 1.3658 0.31693 3.6162 2.1296 4.8657 1.3612 0.93939 3.9947 0.0182 4.3755 1.4501 0.23257 0.87783-1.0306 1.4866-1.5573 2.0954-0.67719 0.78434-0.85047 1.8856-0.79347 2.8911 0.12996 2.2413 1.0876 5.2191 3.1716 6.3523 0.71138 0.38761 1.5003 0.43094 2.2801 0.5495 0.8345 0.12768 1.1834 0.25081 2.0521 0.16645 0.2052 0.52213 0.50161 1.0466 0.61562 1.596 0.16872 0.80259-0.14593 1.9176 0.62246 2.4716 1.2084 0.87099 5.1552-0.15732 5.6455 2.0931 0.25081 1.1537-1.7602 2.7954-2.4374 3.6436-1.9426 2.3964-1.8537 4.4256 0 6.8402 2.214 2.8661 6.2588 5.1735 9.2343 7.2962 1.026 0.73191 2.8843 1.929 2.5651 3.4201-0.49706 2.3166-3.9742 2.7885-5.2123 4.152-0.69086 0.75927-0.76154 1.4866-0.77294 2.4602-7e-3 0.57685-0.0183 1.2746 0.1482 1.8241 0.55862 1.8583 3.2788 4.5374 5.096 5.2442-1.4456-3.0006-3.3403-4.2797-2.4739-6.3751 0.63614-1.539 2.0931-1.2198 3.3859-1.7123 2.556-0.97131 4.2181-2.7475 4.095-5.593-0.0935-2.1296-2.0544-5.2077-2.955-7.2962 1.2176 0.98955 2.5446 1.9016 3.468 3.1921 1.083 1.5094 1.4228 3.1055 2.7954 4.7882 0.6407 0.78663 2.8045 2.442 2.8866 3.1921 0.057 0.54038-0.49706 1.1834-0.79803 1.5961-0.77751 1.0625-1.2996 1.7785-1.9084 2.9641-0.58826 1.1423-1.1332 2.3462-1.1902 3.6481-0.13908 3.1876 2.6221 6.4139 5.4631 7.5243-1.555-2.9071-4.3322-5.4106-1.1355-8.133 0.5495-0.46969 1.1993-0.84135 1.8195-1.2153-1.058 2.8205-0.114 4.0061 1.6964 6.1562 1.7944 2.1296 2.6312 2.2026 1.7055 3.6481-1.6873 2.6403-4.355 3.1784-7.278 3.1921l-5.2442 0.22801c-2.7771 5e-3 -4.6012 0.30097-7.0682 1.6667-6.1243 3.3928-6.0924 10.497-5.511 16.574 0 0 0.33061 4.3322 0.33061 4.3322l0.39218 4.5602c0.016 3.2354 0.24397 6.0034-0.84135 9.1203-1.311 3.7576-4.1269 8.1536-4.1748 12.084-0.0182 1.5732 0.0228 2.8068 0.50617 4.3322 1.4684 4.6468 5.7595 6.1927 9.9822 7.4285l11.172 3.4178 8.8923 2.2938 18.013 4.4211 11.4 4.2364c2.8934 1.1583 6.4321 2.5605 9.5763 2.5993h5.4722c4.5807-0.0228 10.078-3.2012 13.222-6.3842 1.8355-1.8605 3.5569-4.4211 4.5602-6.8402 0.39446-0.95307 1.4205-4.3937 1.9426-4.8885 0.50162-0.47653 1.7078-0.63614 2.3918-0.7547l5.9282-0.51302c11.512-0.13453 22.377 0.13224 33.745 2.1843l7.9803 1.5961s3.4064 0.78435 3.4064 0.78435c1.1378 0.48565 1.1674 1.913 1.5413 2.9595 0.65666 1.84 1.726 3.5866 3.053 5.0162 4.5396 4.8976 11.891 7.2598 18.448 7.5151 1.042 0.0411 1.343-0.0889 2.2801-0.18012 6.0445-0.58598 10.509-2.4898 15.277-6.2976l12.54-11.097c7.2826-5.552 16.04-8.8558 23.941-13.391 4.8953-2.8091 10.101-7.6405 10.032-13.715-0.0593-5.0982-3.7393-7.7637-7.5243-10.425-2.8683-2.0179-9.0793-7.0956-10.922-9.8682-1.5413-2.3211-1.571-5.0891-1.9107-7.7523-0.53582-4.1817-1.6645-8.0669-5.4083-10.468-0.97132-0.62246-2.3143-1.3019-3.4201-1.6166 1.6485-4.9455 2.3941-7.2712 2.7566-12.54 0 0 0.20749-3.1921 0.20749-3.1921l-0.23713-2.2801v-2.0521c-0.80487-8.1467-2.9527-16.866-5.5383-24.625-2.214-6.6419-5.2236-14.364-8.9128-20.293-4.266-6.8516-10.415-12.164-15.083-18.697-2.2983-3.2149-4.5602-6.5279-6.3933-10.032l-5.1644-11.172-3.1921-6.3842c-0.56774-1.1036-1.3589-2.2322-1.6964-3.4201-0.51073-1.7967-0.63614-5.7549-0.77294-7.7523l-0.4355-7.5242-0.22801-3.1921-0.228-7.2962-0.22801-4.3322s-0.20749-2.2801-0.20749-2.2801c-0.22573-3.2947-0.5609-6.5871-1.3635-9.8043-1.5892-6.3569-4.7904-12.892-8.8718-18.013-2.0247-2.5423-5.8552-6.7376-8.7099-8.2083 1.5482-0.43549 5.2989 0.24625 7.0682 0.41726l13.68 1.343 6.1562 0.55862s22.573 2.2801 22.573 2.2801l18.469 1.7853c0.0114 1.2791 0.11857 3.0781 1.001 4.0745 1.099 1.2404 5.0207 1.4045 6.179 0.16188 0.78663-0.84134 0.80031-2.9002 0.80031-4.0084l7.7523 0.45601h6.3842l3.6481-0.228h3.4201l7.7523-0.45602h11.4l7.5243-0.45602h6.3842l6.1562-0.45601h7.2962l7.2962-0.45602h5.2442l5.9282-0.43321h5.7002c1.6781-0.0433 4.1817-0.70683 5.7002 0 2.7703 1.425 2.7862 5.8438 6.3842 6.236 0.64527 0.0707 1.229-0.073 1.8241-0.31465 4.095-1.6508 2.1661-5.2579 1.368-8.2242 3.7348-0.0342 10.513-2.5149 14.136-3.8647l23.713-9.2275 6.1562-2.711c0.71367-0.32605 2.0088-1.0648 2.7361-1.1355 2.2527-0.21661 3.6071 3.452 6.1562 3.6892 0.82767 0.0775 1.5618-0.10489 2.2801-0.51302 0.49933-0.28501 0.95079-0.64982 1.343-1.0671 0.63842-0.67718 0.87555-1.115 0.92799-2.043 0.19153-3.37-3.0188-4.6491-3.338-6.8402-0.17785-1.2084 0.80943-1.9654 0.83907-4.3322v-5.9282c-9e-3 -5.9738-3.6686-12.189-7.1024-16.873 0 0-11.546-13.908-11.546-13.908-8.6506-10.965-17.29-22.053-26.962-32.149l-2.955-2.7452-8.2083-7.7637c-10.789-10.046-22.149-19.492-34.429-27.68-13.484-8.9881-35.551-20.343-50.39-27.762-24.534-12.267-42.243-21.148-69.086-28.41-12.452-3.3677-24.693-5.2282-37.393-7.1982l-9.8043-1.5938-6.6122-1.0078-14.592-1.1993-2.7361-0.20749-4.7882-0.22801h-3.1921l-7.0682-0.45601h-6.1562l-7.2962-0.45602h-14.821l-5.2442 0.41725-5.7002 0.45602-4.5602 0.30553-9.3483 1.2654-16.873 2.2801c-18.229 2.3986-36.417 5.4904-54.266 9.9525-11.952 2.9892-23.514 7.5357-34.885 12.226l-11.4 4.7585-14.364 6.6943-11.856 5.9282-3.8761 1.97-8.4363 5.1803-19.153 11.722c-8.6073 5.0298-16.376 9.9936-23.485 17.103-3.6116 3.6116-6.7764 6.8494-6.8402 12.312-0.0752 6.5028 3.4064 9.6037 7.4855 14.136l9.3871 9.3688 5.0162 4.7038c2.6312 2.3166 7.9164 6.7422 9.8043 9.4122zm371.88-129.63c-1.1651 0.15732-1.8856 0.19609-2.9641 0.76611-0.69999 0.37165-1.1309 0.7433-1.5664 1.4136-0.41269 0.63159-0.63842 1.2951-0.69086 2.0475-0.26221 3.7348 3.6641 5.4699 6.3614 7.0386 0.7205 0.41954 2.4146 1.5413 2.6973 2.3097 0.28501 0.77067-0.44462 1.1811-1.1013 1.2518-0.77751 0.0821-2.6814-0.45146-3.4201-0.76839-1.1697-0.50162-2.5674-1.4524-3.2537-2.5354-0.56546-0.89379-0.56546-3.2651-2.9025-2.9094-1.8309 0.28045-3.3677 4.4302-1.9814 5.7754 0.67262 0.6521 1.3475 0.38761 2.2094 0.91431l1.5961 1.213c1.9951 1.3224 5.1165 2.4739 7.5242 2.5286 1.4912 0.0319 3.0895-0.14593 4.3276-1.0557 2.8227-2.0658 2.0772-5.8872-0.23257-8.0213-0.90519-0.83679-3.6025-2.4306-4.779-3.142-0.5951-0.36025-1.7921-1.0488-2.0726-1.6827-0.39674-0.89836 0.84135-0.92572 1.3886-0.87555 1.4934 0.13452 3.7006 1.1195 4.6605 2.2778 0.94852 1.1423 1.042 3.3403 3.0918 3.0918 1.783-0.21661 3.525-4.6628 2.182-5.9966-0.89607-0.88923-1.5778-0.10032-2.638-0.63386l-1.596-1.0762c-1.9016-1.156-4.6012-2.0452-6.8402-1.9312zm-349.31 10.611c-0.31465-0.49706-0.78434-1.4912-1.3977-1.5983-0.47198-0.0844-1.3635 0.38077-1.7944 0.5951-1.1697 0.58142-3.7302 1.6758-4.2524 2.8318-0.51074 1.1309 0.31237 3.2446 2.6563 2.5879 0 0 1.8241-0.76838 1.8241-0.76838s4.1041 7.9803 4.1041 7.9803c-1.2928 0.36937-3.3654 1.2426-3.5934 2.7361-0.28729 1.8925 1.3156 2.5879 2.9094 2.1364l5.2442-2.5354 6.3705-3.3928c1.5755-1.2472 1.0146-3.6299-0.89835-3.6869-1.5596-0.0456-4.7768 2.1661-6.6122 2.6905l-1.9746-4.5602c-0.1026-0.70226 0.26449-1.4319 0.55634-2.0521 0.6065-1.2882 1.4661-3.1397 2.5674-4.0357 1.6576-1.3475 4.3185 0.56089 4.7243-2.1205 0.32377-2.1433-1.8947-2.8136-3.5934-2.7156-3.6504 0.21205-5.4699 2.8319-6.8402 5.9077zm366.41 7.5243 14.364 6.6122 1.1948-3.1921c0.44234-1.7237 0.19153-4.5488-0.5951-6.1562-3.6618-7.4718-15.976-8.7145-18.79 0-0.33973 1.0466-0.54038 2.0908-0.49706 3.1921 0.23029 5.894 5.3194 8.5024 10.251 10.028 1.6075 0.49477 6.4503 1.6895 6.7787-0.90747 0.30781-2.4214-2.8478-2.5605-4.4986-2.9162-3.4292-0.74103-8.1057-2.5446-8.2083-6.6601zm89.151 106.02-7.0682-2.8683-11.4-4.7882c-12.974-5.4426-25.89-11.289-39.217-15.828-9.9343-3.3836-19.948-6.2542-30.097-8.9197 0 0-24.625-5.8735-24.625-5.8735-18.749-4.4484-37.446-9.118-56.318-13.024l-26.677-4.8839-10.26-1.8241s-5.7002-0.98044-5.7002-0.98044l-11.4-1.2404s-20.521-2.2801-20.521-2.2801l-31.921-3.5729-15.733-1.2176-32.833-2.7361-4.5602-0.41726h-3.8761l-9.3483-0.68402-5.2442-0.24853-2.2801-0.20749-4.3322-0.228h-5.9282l-6.8402-0.45602h-9.5763l-6.3842 0.45602h-4.5602l-5.7002 0.45601h-3.4201s-4.1041 0.41726-4.1041 0.41726l-6.3842 0.47425-28.273 1.8651-9.8043 0.68403-2.2801 0.20749c1.5664-1.5961 6.2657-3.5318 8.4363-4.6172l7.9803-3.8784 10.032-4.7927c12.664-5.4653 25.382-10.931 38.533-15.135 10.212-3.2628 20.685-5.796 31.237-7.6976 0 0 38.077-5.894 38.077-5.894l11.172-1.6987 10.944-1.0146 10.26-0.89379 2.7361-0.20749h10.944l7.0682 0.45602h7.2962l3.4201 0.228 3.8761 0.22801h2.0521l12.768 1.1013 8.6643 0.73647h2.0521s11.628 1.9768 11.628 1.9768l13.452 1.9426c11.182 1.9404 24.52 5.0207 35.341 8.3838 23.366 7.2643 44.995 18.674 66.806 29.579 15.443 7.7226 30.767 16.052 44.918 25.986 9.7656 6.8562 17.791 13.621 26.613 21.608 5.1963 4.7061 10.534 9.4418 15.176 14.709 1.628 1.8446 4.4302 4.2592 5.1803 6.6122zm-77.523-104.66-10.032-4.5602c2.6837-3.3494 8.8399-0.68402 9.8864 2.9641 0.15733 0.54038 0.14137 1.042 0.14593 1.5961zm-394.23 4.3321c-2.0247 0.87099-4.0107 1.8879-5.6911 3.3335-2.8797 2.4716-5.007 8.4386-0.69315 10.703 3.8442 2.0179 10.083-1.5231 11.628-5.1438 0.45374 0.20748 0.5951 0.36253 1.14 0.23484 0.94623-0.22344 4.437-2.5423 4.8201-3.4475 0.44462-1.0534-0.14136-2.898-2.084-2.6631 0 0-2.0521 0.63158-2.0521 0.63158-0.44461-1.4114-1.384-2.6175-2.1433-3.8761-2.2527-3.7348-3.6436-6.2497-8.5731-4.9044-2.4351 0.6635-5.3582 2.841-7.0477 4.6764-0.89379 0.97359-1.8013 2.084-0.93028 3.3836 0.96448 1.4661 2.54 0.91887 3.6458 0 1.5482-1.3156 2.4784-2.4328 4.3322-3.5068 0.63158-0.36481 1.5345-0.82767 2.2801-0.59966 0.64755 0.19609 0.98272 0.67263 1.368 1.1788zm407.91-0.68402s-4.1041 7.9803-4.1041 7.9803c-0.97587-0.5153-2.7771-1.6348-3.8761-1.5231-1.3908 0.13908-2.3667 1.9814-1.27 3.3061 0.7205 0.86643 2.5195 1.6052 3.5501 2.1638l8.2083 4.3276c2.7315 0.99412 3.7256-1.3703 2.7954-2.7931-0.70682-1.083-4.6673-3.053-5.9875-3.4292l2.6517-4.6605c0.47426-0.44689 1.286-0.55406 1.9084-0.67262 1.2654-0.23941 3.5866-0.68858 4.7882-0.28729 1.7899 0.59738 2.3644 4.2273 4.7745 2.6882 1.9381-1.2358 0.5039-4.0449-0.7091-5.2351-2.1478-2.1068-5.4357-1.7693-8.1695-1.4091l0.91203-2.2801c-1.4934-0.64754-4.9888-2.898-6.3842-2.8182-1.4729 0.0844-2.2436 1.7739-1.5254 3.0051 0.47654 0.81399 1.6074 1.2768 2.4374 1.6371zm-445.98 12.312 3.2263 4.5602c0.5609 0.76838 1.4684 2.0749 2.2482 2.5674 1.5687 0.99184 3.4361-0.28729 3.0006-2.1114-0.38305-1.6074-1.8947-2.7999-2.5468-4.3322l3.1921-2.0521c0.62931 1.4775 4.8452 6.9269 6.0901 8.6643l1.9039 2.695c0.25309 0.73875-0.67947 1.1811-1.1537 1.5618-1.2654 1.0146-2.5012 2.4602-0.88011 3.8807 1.0215 0.89379 2.1729 0.34657 3.1602-0.28273l6.6122-4.8155c0.86187-0.68174 1.9107-1.5892 1.7625-2.8113-0.0707-0.58598-0.38305-1.0785-0.87555-1.4-1.5983-1.0488-3.7165 1.0055-4.9911 1.856 0 0-4.2478-6.1562-4.2478-6.1562s-4.1885-5.4722-4.1885-5.4722l3.4201-2.5081c0.43321 1.115 1.8993 3.2947 2.9664 3.8351 1.1241 0.5723 2.6244-0.0616 2.882-1.327 0.20749-1.0238-0.59966-2.1775-1.1583-2.9641 0 0-3.7781-5.2442-3.7781-5.2442-1.5618 0.42409-4.0677 2.5902-5.4722 3.6139l-11.172 8.2425zm40.357-8.4363c0.25081 0.55178 0.63614 1.2039 0.55862 1.8241-0.0684 0.57002-0.6179 1.3635-0.95991 1.8241-0.98044 1.3224-3.4908 3.7644-5.2943 3.5752-2.3097-0.23941-0.59055-3.3038 0.29185-4.1908 0.52897-0.53126 1.3338-1.0899 1.9837-1.4661l3.4201-1.5664zm452.14 31.921c-0.37393 0.52442-1.0055 1.5254-1.6166 1.7443-0.81171 0.29413-2.4693-0.64754-3.1716-1.0625-2.3804-1.4091-5.4904-4.1725-4.608-7.294 0.35113-1.2495 1.368-2.8296 2.1342-3.8761 2.6608-3.6276 5.625-5.2008 9.7701-2.6289 0.88467 0.54722 1.7739 1.3703 2.4328 2.1729 0.43777 0.53126 0.84363 1.1241 0.92799 1.8241 0.15049 1.2358-1.0762 2.7612 0.54494 3.8237 0.31693 0.20749 0.72962 0.35797 1.1104 0.35341 0.92115-0.0114 1.5983-0.77978 2.1273-1.441 0.69314-0.86643 2.1433-2.8227 2.3416-3.8761 0.23713-1.2677-0.46058-2.043-1.7329-2.0224-0.39445 7e-3 -0.75927 0.10717-1.14 0.19837-0.59738-1.7671-2.1547-3.1556-3.6481-4.2022-3.7849-2.6495-8.8695-3.0371-12.768-0.34658-1.726 1.1925-2.7201 2.6358-3.8807 4.3208-1.2768 1.8514-2.2345 3.4042-2.4648 5.7002-0.6407 6.4116 5.3149 11.482 11.134 12.721 0 0 2.4876 0.40813 2.4876 0.40813 1.286-0.0365 2.312-2.8592 3.4612-3.6436 0.81171-0.55634 1.441-0.17785 2.1957-0.89151 0.4697-0.44462 0.72507-1.1127 0.59738-1.7534-0.18012-0.89607-0.98727-1.5482-1.6736-2.0749l-5.0162-3.5455c-0.79574-0.50846-1.7625-0.99868-2.727-0.62702-1.0922 0.42181-1.5276 1.8263-0.95079 2.8273 0.61106 1.058 3.0143 2.6152 4.1338 3.1921zm14.364 3.1921s-3.8579 4.7882-3.8579 4.7882c-0.29413 0.35798-1.2654 1.6781-1.5892 1.8332-0.55633 0.26905-1.2107-0.49934-1.6211-0.83907-1.14-0.80259-2.5993-1.4501-3.6139 0-1.001 1.3612 0.057 2.5719 1.1058 3.4999l6.6122 5.3285c0.89151 0.74103 2.5126 2.2003 3.6481 2.3918 1.8378 0.30782 2.8022-1.6143 1.8834-3.0941-0.5723-0.92115-2.141-2.0726-3.0234-2.7817-0.37393-0.30097-1.1856-0.88695-1.327-1.343-0.20977-0.68175 0.68174-1.5459 1.0808-2.0316 0.45145-0.54949 1.2996-1.7671 1.8628-2.0794 0.60194-0.33289 3.0462-0.20976 3.8556-0.20064 1.2312 0.016 2.6882 0.2052 3.5501 1.1879 0.94852 1.083 0.76383 3.4703 3.0622 2.9937 2.6631-0.55178 1.4684-4.3686 0.33517-5.7686-1.7625-2.1798-5.0116-2.5149-7.6314-2.5172 0.39673-0.43778 1.1606-1.1742 1.115-1.815-0.0388-0.56317-0.71823-1.0557-1.115-1.3954-1.0511-0.89607-3.3631-3.0439-4.7882-2.8364-1.3726 0.20065-2.0293 1.6257-1.4638 2.8524 0.39217 0.84591 1.1628 1.3452 1.9198 1.8263zm-360.02 0.91203c-0.25309 0.76155-0.72962 1.9472-0.62474 2.7361 0.19609 1.4729 2.4237 3.0485 3.8168 3.2902 2.8341 0.49249 3.5706-3.8853 6.1562-3.4247 0.68631 0.12084 2.4739 1.0876 3.1921 1.4456l5.9282 2.9641s16.189 8.3246 16.189 8.3246l6.1562 3.1328c-0.4811 2.3622-4.6103 6.4344-6.3842 8.2083l-12.477 13.908s-6.1288 7.5243-6.1288 7.5243c-5.8074 7.2598-11.341 14.727-16.672 22.345l-9.2024 13.68s-4.7699 7.2962-4.7699 7.2962l-7.2962-2.6403-13.908-5.2442-41.725-15.302s-13.224-4.8702-13.224-4.8702l-6.3842-2.2687 11.856-10.527c14.572-13.108 30.134-25.124 46.742-35.542l16.417-10.345c3.9514-2.4739 6.2269-4.6856 11.172-4.6924h11.172zm-31.465 0.91203c-1.2882 1.1993-4.5282 3.0964-6.1562 4.1794l-13.908 9.1226c-10.675 7.2643-20.927 15.363-30.781 23.697l-15.277 13.174-3.6481 3.1853c-0.99868 0.93255-2.5628 2.4374-3.8761 2.8136-2.6175 0.75471-5.5748-2.5651-7.2962-4.1657l-8.8923-8.4363-8.4363-8.0008c-1.1127-1.115-3.338-3.5387-4.2022-4.7882-0.63614-0.92115-1.1583-1.8172-0.85959-2.9641 0.50846-1.9472 3.3175-4.5191 4.8338-5.8324 3.9422-3.4156 8.1764-6.3341 12.54-9.1842 1.3635-0.88923 4.412-3.069 5.9282-3.3631 0.99639-0.19381 1.5003 0.53582 2.2801 1.0215 0.94623 0.59054 1.6553 0.76611 2.7361 0.43322 2.2938-0.70455 4.8771-4.0198 7.2962-5.3491 2.8478-1.5641 7.4946-1.4022 10.716-1.4387l3.1921-0.22801 6.1562-0.43549 19.153-1.368 14.82-0.95307 4.5602-0.41497 9.1203-0.70455zm88.695 2.7361c-0.83223 1.4273-3.2149 4.3116-5.0162 4.266-1.3498-0.0342-4.0266-1.8035-5.2442-2.5332-1.0488-0.6293-2.8068-1.3954-3.4201-2.4169h5.0162l8.6643 0.68403zm18.241 1.368s6.1562 0.72051 6.1562 0.72051l10.032 1.083c1.6439 0.11629 6.2201 0.35114 7.5243 1.0032 1.0944 0.54722 1.7283 1.6645 2.353 2.6654 0 0 2.2664 4.3322 2.2664 4.3322s1.5938 2.9641 1.5938 2.9641 3.5204 6.6122 3.5204 6.6122l5.3992 10.26c1.7123 3.1739 3.7553 6.4139 4.9318 9.8043-1.3316-0.6179-2.9481-2.1524-4.1041-3.1305l-6.6122-5.6979-22.117-19.805-7.7523-7.3715c-0.94167-0.87783-2.8706-2.2208-3.1921-3.4406zm18.013 27.589-9.3483-5.1484-16.189-9.6288-8.4363-5.0595c0.91431-1.441 3.7462-4.4804 5.4722-4.7334 1.1993-0.17557 2.0886 0.57458 2.9641 1.27l5.0162 4.3846 14.098 12.914 6.423 6.0012zm36.481-21.661s-1.2358 5.7002-1.2358 5.7002l-2.7726 12.996-1.4638 6.6122s-5.3126-9.1203-5.3126-9.1203l-5.2351-10.032s-4.2729-8.4363-4.2729-8.4363l12.54 1.4045s7.7523 0.87555 7.7523 0.87555zm246.02 1.0488c-6.0148 1.5983-8.2995 7.9757-5.4448 13.316 1.8628 3.484 5.1872 5.5566 9.093 5.8119 6.7422 0.43777 10.744-6.1266 8.6415-12.196-1.1264-3.2537-4.3641-6.1539-7.7295-6.9314-1.0648-0.22344-3.4657-0.19152-4.5602 0zm-220.48 2.1433c0 1.0238-0.0638 2.0407 0.47654 2.9595 0.98043 1.6759 3.6846 2.1228 5.2237 1.0283 1.058-0.7547 1.3224-1.5048 1.8241-2.6198l20.293 3.6481-4.1041 3.5569-7.5243 6.0764-16.873 13.14-9.1203 6.8676 1.1058-8.6643 2.2185-17.329 0.76839-6.1562 0.47197-2.597s1.5915-0.17784 1.5915-0.17784l3.6481 0.26677zm221.4 1.9016c2.9892-0.34657 5.4175 0.6407 6.9862 3.3426 1.5983 2.7543 0.81171 6.7582-2.654 7.4946-2.9185 0.62018-5.9464-1.229-7.205-3.8465-1.3407-2.7885-0.27133-6.1425 2.8729-6.9907zm-174.65 16.795-13.224 4.9204-17.329 6.5758-12.768 4.6924c0.92115-1.1172 2.5012-2.2938 3.6481-3.2491l6.1562-5.0549 16.189-12.7 6.1562-4.7106c0.68174-0.45601 2.6084-1.3407 3.4201-1.2723 0.85731 0.0707 1.9221 1.2905 2.4876 1.9061 1.0329 1.1264 2.2436 3.3859 3.0758 4.7882 0.69543 1.1742 1.8286 2.8706 2.1889 4.1041zm-111.04 81.171-0.68403-0.228c-0.59738 0.82994-1.1674 0.50161-2.0521 0.33061 0 0-3.8761-0.78663-3.8761-0.78663s-17.557-3.6025-17.557-3.6025l-13.452-2.7817s-41.269-8.2083-41.269-8.2083l-19.381-4.7882c0.48794-1.7055 2.043-3.9172 3.0074-5.4722l7.9324-11.628s15.361-20.977 15.361-20.977c4.1338-5.365 10.158-12.969 14.741-17.785l9.6721-10.488c1.0922-1.2563 3.4452-3.9331 5.1484-4.0768 1.3202-0.10945 2.7384 0.69086 3.8761 1.2905l6.3842 3.4133 27.361 14.362 24.397 12.657 6.3842 3.2947c0.80487 0.52214 1.7329 1.1332 1.9814 2.1205 0.24853 0.99868-0.0935 2.6426-0.29413 3.6481l-1.3224 6.3842-2.8729 13.908-1.9723 9.8043-1.4934 7.2962c-0.12996 0.64983-0.34657 2.3439-0.80487 2.7589-0.38989 0.35113-1.3635 0.43093-1.8856 0.53582l-4.1041 1.115c-3.1465 1.0899-6.2748 3.2628-9.1203 5.0344l-2.7361 1.7579c-0.5837 0.33745-1.1264 0.45601-1.368 1.1104zm116.28-89.835v0.22801l-0.22801-0.22801h0.22801zm9.5763 2.2801c-1.7716 1.4843-5.4562 2.654-7.7523 2.9641 0 0-1.8241-5.0162-1.8241-5.0162l9.5763 2.0521zm176.71 19.609-1.14 1.14c0.75927 1.1948 2.5514 3.3745 3.8761 3.8716 1.2495 0.46741 2.5947-0.52214 2.6631-1.8195 0.0342-0.64526-0.3899-1.4296-0.61106-2.0521l2.7361-2.2413 6.6122-5.967c-0.39445-1.343-2.5491-3.5843-3.6481-4.5123-0.51074-0.43093-1.1332-0.85503-1.8241-0.88695-1.2791-0.0593-2.2345 1.2084-1.9518 2.4351 0.21889 0.94396 0.99183 1.7078 1.7237 2.2801l-3.4201 3.1716c-0.57686 0.5381-1.4957 1.384-2.2801 1.5368-2.0817 0.40358-6.1266-2.2026-5.5748-4.4804 0.26676-1.0967 1.9905-2.5514 2.8387-3.2879l5.9282-5.6044c-0.6521-0.90975-2.9983-3.623-3.8761-4.1634-1.0397-0.64298-2.3713-0.35797-2.9595 0.75243-0.80259 1.5208 0.91659 2.5651 0.31237 3.5752-0.4925 0.81627-4.6377 4.0699-5.682 5.764-2.198 3.566-0.35569 8.1946 3.313 9.8841 0.92115 0.42637 1.9609 0.55862 2.9641 0.60422zm-152.99-14.136c-0.37621 1.0876-1.0078 1.0215-2.0521 1.2837l-4.3322 1.0808-14.136 3.598c-1.7009 0.46513-4.1269 1.6348-5.625 0.14136-0.44462-0.44233-0.71594-0.98955-0.98727-1.5436l11.4-4.3436 5.7002-1.9472s3.6481 0.54493 3.6481 0.54493l6.3842 1.1856zm-147.07 0.68403v0.22801s-0.228-0.22801-0.228-0.22801h0.228zm244.88 98.043-6.6122 0.47654-6.3842 0.43549h-6.1562l-7.2962 0.45602-3.4201 0.22801h-6.6122l-3.1921 0.228h-6.1562l-7.5243 0.45602h-11.856l-7.5242 0.45601h-11.4l-9.5763-0.45601-1.9563-10.26-3.2035-13.908-6.7604-24.853-3.3677-10.716-5.9191-15.277c-1.1788-2.8319-2.4442-4.4804-3.1898-7.7523l11.172-2.4602s24.169-5.2122 24.169-5.2122l9.8043-2.1045c1.5778-0.36253 4.1429-1.0146 5.7002-0.56546 2.1205 0.60879 5.2054 4.1475 6.8402 5.7823 0 0 6.5917 6.6122 6.5917 6.6122s7.8184 9.1203 7.8184 9.1203 6.8471 8.8923 6.8471 8.8923l3.4976 4.5602 10.137 14.82 9.0633 12.312s2.8843 5.0162 2.8843 5.0162 5.2442 9.1203 5.2442 9.1203l6.0262 10.488s2.312 4.1041 2.312 4.1041zm-131.79-89.151-13.452 3.1921c1.1081-0.80259 5.5338-2.442 7.0682-3.0553l4.3322-1.6417c1.2084-0.19153 1.7374 0.44234 2.0521 1.5048zm203.15 5.4722-8.4363 6.6396-4.5602 3.8488c-0.46285-0.45145-1.0146-1.0374-1.596-1.3293-1.2039-0.59966-2.6928-0.0866-2.9094 1.3293-0.16417 1.0785 0.45373 1.9198 1.0625 2.7361 0 0 3.9651 4.9911 3.9651 4.9911 0.94623 0.97131 2.1934 1.4889 3.3016 0.41725 0.36025-0.34657 0.62474-0.79347 0.63614-1.3042 0.0296-1.14-1.3566-2.7338-2.1798-3.4201l4.7882-3.8761c0.17101 2.1205 0.58826 3.9491 1.8606 5.7002 1.0146 1.3977 2.068 2.3462 3.6116 3.1306 1.311 0.6635 2.4078 0.95535 3.8761 0.97359 1.4456 0.016 2.2983 0.0456 3.6481-0.59966 8.1467-3.9035 5.2784-15.999-2.2801-17.185l0.91203-1.14c-0.75243-1.3088-2.8957-4.453-4.3322-4.8657-1.8947-0.54038-3.7051 1.8856-1.368 3.9537zm-121.76-2.7361v0.22801l-0.22801-0.22801h0.22801zm106.02 68.858c-10.605 4.4963-21.214 9.1226-32.149 12.768l-7.9803 2.4442c-1.7465 0.52442-3.8738 1.2996-5.7002 1.1948-2.2162-0.12768-3.5706-3.4931-4.4918-5.2351 0 0-5.2168-9.1203-5.2168-9.1203s-3.9263-6.8402-3.9263-6.8402-5.3696-9.1203-5.3696-9.1203l-10.928-15.049-8.2402-12.084s-5.7002-7.5242-5.7002-7.5242l-8.8353-11.172c-2.084-2.3097-6.2223-6.3181-7.4855-8.8923 1.8925 0.0867 6.5963 1.3065 7.9598 2.556 1.3589 1.2472 2.1638 3.7484 4.1247 4.1862 1.9244 0.42866 3.2309-1.6759 5.7002-1.058l13.908 5.3924 20.977 8.792 13.224 5.7184 5.0162 2.3758c1.0944 0.77979 4.6445 4.9637 5.764 6.2383l10.662 11.628s6.1083 6.3842 6.1083 6.3842 7.6474 9.5763 7.6474 9.5763c1.197 1.5938 4.1452 5.3149 4.9318 6.8402zm16.873-61.031c3.1237-0.33745 5.5406 1.8583 6.4937 4.7129 0.87327 2.6198-0.45145 5.3855-3.3016 5.853-5.3901 0.88239-9.9981-8.89-3.1921-10.566zm-174.2 80.412-7.2962-0.64526-12.084-1.14-8.6643-0.76154s-26.905-2.8866-26.905-2.8866-17.329-1.799-17.329-1.799-4.3321-0.45602-4.3321-0.45602c-0.56774-0.0684-1.3042-0.0274-1.8036-0.29641-0.59966-0.32377-2.0794-2.312-2.6244-2.9595-1.7443-2.0635-3.6002-4.0768-5.6044-5.8894-2.4556-2.2208-5.4745-4.4302-8.4363-5.91-0.80031-0.4013-3.8967-1.5619-4.2022-2.2026-0.31237-0.65666 0.32377-4.0243 0.4583-4.9227l1.6302-11.856 2.2778-16.417c0.20065-1.5322 0.58826-6.2269 1.3635-7.2712 0.7547-1.0169 2.3166-1.1879 3.4885-1.441l7.7523-1.6394s31.237-6.6578 31.237-6.6578l18.469-3.9217 4.7882-0.9964c0.81627-0.114 1.9404-0.33289 2.7315 0 1.4433 0.54494 2.3485 3.2354 2.9345 4.5989l5.5976 13.452c4.3436 10.858 9.4669 30.067 12.141 41.725l2.9117 12.996 1.5003 7.2962zm142.5-49.934c4.2387 2.9436 7.994 7.066 11.088 11.172 1.2267 1.6325 3.0348 4.0357 3.7325 5.9282-1.1081-0.86415-2.4784-2.5605-3.4589-3.6481 0 0-7.7774-8.6255-7.7774-8.6255-1.0922-1.1195-3.8077-3.11-3.5843-4.8269zm15.049 17.101v0.22801l-0.22801-0.22801h0.22801zm-364.36 14.136c-1.0876 3.8054-5.1074 5.4015-8.6643 6.0217-3.2651 0.49706-6.5324 0.52214-9.8043 0-3.4817-0.47882-7.4832-1.685-10.944-1.6895h-2.5081c-1.9449 2e-3 -4.2409 0.39218-6.1562 0.77523-7.791 1.5596-14.41 4.6377-19.798 10.625-2.2276 2.4762-4.0768 5.9122-5.568 8.8923-1.9859 3.9742-3.5843 7.7773-3.5911 12.312-5e-3 2.8182-0.1824 6.163 0.33289 8.8923 1.0648 5.6432 5.8621 12.214 11.524 13.81 4.4097 1.2426 8.9926-1.0853 12.312-3.851l3.1921-3.1192s5.5064-6.1562 5.5064-6.1562l12.942-14.82c2.426-2.6152 4.8474-5.438 7.7728-7.5151 1.5527-1.1036 3.2468-2.1524 5.0162-2.8706 3.1602-1.2791 7.3122-1.9221 10.716-1.9267h3.6481c4.3595 7e-3 9.0428 1.5687 12.768 3.7849 2.4009 1.4296 4.608 3.1647 6.6122 5.1096l3.4862 3.4452c0.51301 0.33289 2.524-0.0342 3.354 0 1.9198-7e-3 3.183 0.66806 4.5214 2.0452 1.3042 1.343 2.5696 3.069 2.6882 4.9956 0.073 1.1606-0.4697 2.8957 0.13908 4.3322 0.63386 1.5003 1.7215 1.6029 2.6608 2.271l1.3908 1.3772c-0.60194-2.0475-2.2048-2.1205-2.7589-3.6481-0.30553-0.85047 0.17329-3.0941 0.23029-4.1041 0.0547-0.97132-0.1482-1.8195-0.44233-2.7361-1.2404-3.8602-4.2022-5.0572-7.2894-7.0682 1.3931-0.27817 4.4006 1.026 5.7002 1.6553 4.4348 2.1456 10.625 5.6409 11.097 11.113 0.26677 3.0758-2.2459 5.4425-4.4849 7.0956-1.2426 0.91431-3.0188 2.0772-3.4999 3.6208-1.0967 3.5182 3.2354 3.7256 3.4748 6.1562 0.21205 2.1524-1.1742 3.2354-3.167 3.4201 0.41725-0.90747 1.2814-1.7693 1.2837-2.7361 0-1.457-1.7899-2.882-2.8797-3.639-3.5341-2.4579-7.3761-1.9312-10.906-5.3217-1.5664-1.5026-1.9221-3.1442-2.3188-5.1758-0.76838-3.9286-0.89379-7.0728 0.22801-10.944l-1.14 1.596c-1.3566-0.39901-1.9791-1.3156-2.9641-2.2778l-4.7882-4.3595c-4.323-3.3426-8.7874-4.1406-14.136-4.0791-3.9012 0.0456-7.9484 1.4091-11.4 3.1351-4.6058 2.3029-8.3884 4.8816-12.082 8.5024-2.6996 2.6472-5.1188 5.7504-7.5448 8.6552-2.7087 3.2446-5.5497 6.4435-8.646 9.3278-2.5468 2.3713-5.422 4.355-8.4363 6.0787l-5.0162 2.7498-4.5602 4.4165c-1.5003-1.083-3.0621-3.4224-3.8966-3.8716-1.0899-0.5837-4.5738 0.35113-5.3992 0.1482-0.69087-0.171-0.75015-0.93255-0.87327-1.5208-0.28729-1.384-0.71139-3.1853-0.77523-4.5602l-5.4722-1.14 0.91204-8.4363-3.8761-2.2801c0.49934-1.7443 2.2664-4.0289 2.467-5.0162 0.31465-1.5368-2.6403-4.4621-2.296-6.1562l3.3244-6.1562c0.11857-0.70226-0.63614-3.4862-0.84363-4.3322-0.1368-0.55178-0.37621-1.2426-0.11856-1.7853 0.41041-0.86415 3.37-2.6882 3.9422-3.4976 0.69087-0.97815 0.40814-5.5816 1.0466-6.4139 0.30097-0.39217 1.1355-0.61106 1.5983-0.76838 0.84819-0.28501 3.6755-1.1697 4.2387-1.6348 0.86643-0.71594 1.986-4.7357 2.7498-5.2829 0.5267-0.37621 3.8032-0.22117 4.64-0.22573 1.2563-7e-3 1.9472 2e-3 2.898-0.94167 0.93939-0.93027 2.1798-3.1784 3.4885-3.354l3.1898 0.19152c1.4182 2e-3 4.9204-0.14136 6.1562-0.6065 1.172-0.44233 2.1866-1.5459 2.9641-1.6485 1.0625-0.13909 3.2218 1.8605 4.2683 2.1319 0.59054 0.15277 1.1514-0.25081 1.6599-0.5039 0.75699-0.37849 3.1488-1.5504 3.8761-1.5573 0.55178-5e-3 2.3234 0.67946 2.9641 0.89151l6.3842 2.2048c-1.0762-0.87327-5.2305-4.3139-6.1562-4.7243l-6.1562-1.0374-5.4722-1.1811c-1.6052-0.16645-5.9419 1.8332-7.7523 1.897-1.6599 0.057-5.324-1.482-6.6122-1.0922l-5.4722 2.9162c-0.69542 0.16188-2.7817 0.0342-3.6481 0-0.7775 0.0251-2.369-0.25993-2.9436 0-1.2951 0.7091-2.4306 4.2637-3.7097 4.9751l-5.8461 0.88923c-0.65666 0.28729-1.0534 1.099-1.4091 1.6895-0.54494 0.90291-1.9426 3.4087-2.5833 4.0152-0.98271 0.93483-3.1556 1.4342-3.8168 2.4169l-1.4228 7.2096c-0.68174 1.2609-3.0667 2.3599-3.2104 3.6869l1.1378 5.9282c-0.15732 0.91659-2.0384 2.8615-2.7064 3.6481-0.35569 0.41954-1.0899 1.0922-0.96219 1.6918 0.0752 0.35797 0.90975 1.3863 1.1674 1.7283 0.86187 1.1492 1.9061 2.271 2.3644 3.6481l-4.1041 2.9641 3.6481 3.053s1.3224 1.5276 1.3224 1.5276l-1.3224 1.8035s-3.6481 3.6481-3.6481 3.6481l6.3842 1.8241s-4.1041 5.7002-4.1041 5.7002 5.2442 0.91203 5.2442 0.91203-3.4201 6.1562-3.4201 6.1562h6.1562l-2.9641 4.5602s6.6122-0.68402 6.6122-0.68402l-1.596 6.6122 5.0162-3.8761 1.596 7.7523s3.6481-5.4722 3.6481-5.4722 1.8241 7.0682 1.8241 7.0682l4.5602-5.0162-0.22801 7.2962s4.5602-6.6122 4.5602-6.6122c0.37394 1.0238-0.23484 2.7931-0.48337 3.8761 0 0-1.7967 8.2083-1.7967 8.2083-6.0445-0.49021-12.923-2.5446-18.013-5.8575-3.9559-2.5765-6.7468-5.536-9.6675-9.191-7.0933-8.8786-10.541-17.894-11.33-29.185l-0.20748-2.2801-0.22801-6.1562 0.23713-2.2801v-2.0521c0.28501-2.6745 0.71822-5.3924 1.457-7.9803 2.2573-7.9119 7.4855-16.572 13.582-22.078 3.5204-3.1784 7.9142-5.9236 12.084-8.1764 8.3861-4.5328 17.579-5.3285 26.905-5.3149l3.8761 0.22801c2.8615 5e-3 7.3008 0.4925 10.032 1.3042 3.8875 1.1537 7.0477 3.1078 10.488 5.1712 2.3758 1.425 5.1484 3.1784 7.9803 3.3061 1.7123 0.0752 3.2468-0.46285 4.7882-1.1172zm130.65 18.925-5.9282-1.6234c-0.5153-0.11857-2.2846-0.4013-2.6016-0.65895-0.6635-0.54038-0.34429-2.2299-0.98727-3.167-0.79119-1.1514-2.4442-1.2472-3.5273-2.5719-0.80943-0.98956-2.255-4.4598-3.0052-4.9797-0.91659-0.63614-4.437-0.46514-5.3354-0.97816-1.0352-0.5951-2.0817-3.794-3.0986-4.5807-0.57914-0.44918-3.541-0.12997-4.4735-0.13681-3.0097-0.0182-4.2934-2.3211-6.3842-2.7976-1.2495-0.28273-4.5146 1.1925-5.9282 1.0443l-5.9282-1.8013c-0.89835-0.0844-3.5068 0.71823-4.5602 0.95079l-6.1562 1.156c-0.89151 0.4013-4.3869 3.5729-5.2442 4.412l5.4722-2.0954c0.70911-0.27361 2.0088-0.84591 2.7361-0.75698 1.0967 0.13452 3.6572 1.9107 4.4644 1.8765 0.98955-0.041 2.8866-2.0863 3.9719-1.9267 0.72051 0.10488 1.669 1.1218 2.5081 1.5026 0.63158 0.28957 4.266 0.6977 5.0162 0.68174 0.96219-0.11172 2.9732-0.44234 3.81 0 0.97131 0.59738 2.1524 2.9367 3.069 3.4498 0.65894 0.36709 3.1875 0.23029 4.0654 0.23257 0.5153 0 1.2951-0.0502 1.7351 0.23256 0.89607 0.57914 1.5641 3.7188 2.3257 4.754 0.97816 1.327 4.5419 1.7579 5.2989 2.6973 0.43322 0.53582 0.43778 1.8993 0.44462 2.5765l-5.4722 0.68402c-4.4781-5.9396-13.329-11.537-20.977-11.628-5.2579-0.0616-5.9829 0.56774-10.716 1.27-2.1706 0.32149-4.4211 0.52897-6.6122 0.55405l-2.5081 0.21889c-1.042 0.041-1.343-0.0889-2.2801-0.23713h-1.596c-2.9618-0.54949-5.3856-2.2527-6.6122-4.9979 0.82767 0.12769 1.6759 0.4583 2.5081 0.3785 1.3156-0.12541 2.711-0.87783 3.8761-1.4615l8.4363-5.0709c4.038-2.3576 9.9161-3.8556 14.592-3.8784 9.3711-0.0433 19.502 1.1104 27.589 6.2565 4.0426 2.5696 7.5607 6.1676 10.755 9.704 2.7201 3.012 5.6432 6.9702 7.2575 10.716zm-136.8-20.065v0.228l-0.228-0.228h0.228zm81.399 16.873c0 1.0215-0.12768 3.0097 0.29869 3.8761 0.88695 1.7944 3.9286 2.581 5.6204 1.5436 2.1433-1.311 0.82767-3.24 3.8852-3.8237l-1.3065 10.488c-0.55178 3.8351-0.41269 6.3249-2.3416 9.8043 0 0-4.6559-5.7002-4.6559-5.7002-1.7215-2.1-4.9295-5.4539-6.9725-7.2301-1.8993-1.6508-3.7006-2.6586-5.9282-3.7712-6.3523-3.1693-13.712-4.3025-20.521-1.9176-2.8045 0.985-7.2894 4.0221-9.5763 5.951-0.95535 0.80486-3.1625 3.3221-4.3321 3.3608-0.79575 0.0274-2.3052-1.1856-2.9641-1.6713l-7.0682-5.2282c-3.541-2.1136-8.621-3.8511-12.768-3.8579h-4.7882c-6.667 0.0114-13.115 2.5491-18.241 6.7536-2.3736 1.9449-4.9751 4.8816-7.0888 7.1549 0 0-12.027 13.452-12.027 13.452-3.2537 3.6436-6.4435 7.7682-10.525 10.488-1.9996 1.3338-3.6732 2.4009-6.1562 2.499-3.0576 0.12085-5.8963-1.7557-7.9415-3.8875-1.0078-1.0511-1.343-1.9404-2.5468-2.9436v-0.91203l-0.45602 0.228 0.22801-0.68402-0.68402-0.22801c-0.0456-1.7625-1.3521-3.6253-1.3772-7.0682v-2.0521l-0.20064-1.8241 0.57685-5.4722c0.50846-2.6449 1.571-5.1279 2.768-7.5242 1.2426-2.4853 3.0576-5.935 4.8839-7.9803 1.2563-1.4068 2.9937-3.0576 4.5214-4.1634 5.894-4.2592 14.843-7.0933 22.117-7.009 2.6221 0.0319 6.4344 1.0146 9.1203 1.5003 3.2491 0.58598 4.5214 0.56774 7.7523 0.55178l2.5081-0.20748c4.0266-0.29413 7.8708-0.92344 10.675-4.1247 1.172-1.3384 1.1993-2.1296 1.8651-3.6481l12.312 2.5081 22.801 4.5602s23.485 4.8839 23.485 4.8839 15.049 3.3244 15.049 3.3244zm10.032 1.368v0.22801l-0.22801-0.22801h0.22801zm-20.749 5.2442 4.5602 3.6686c3.0621 2.8387 5.8849 5.9989 8.4066 9.3278 0.95079 1.2563 3.2947 3.6664 3.1055 5.2442l-1.2518 5.0162c-1.1264-0.93711-2.1-2.4579-2.9937-3.6481-1.5778-2.1045-3.1876-4.2478-5.007-6.1539-2.4306-2.5446-5.4152-4.5852-8.4158-6.3865-3.3016-1.9814-7.0044-3.8693-10.944-3.8761h-1.5961c-2.7406 0.0137-6.0171 1.254-8.4363 2.5081 1.1309 0.55178 2.1478 1.2791 3.1921 1.9768 1.7146 1.1446 2.3325 1.6439 3.8761 3.0051 2.5149 2.214 4.5168 4.2182 4.5602 7.7865 0.016 1.3726 0.0661 2.6016-0.54722 3.8761-0.56774 1.1788-1.5071 2.0521-2.4169 2.9732h3.1921l4.7882 0.4469 1.5801 7.2962c1.0032 2.4807 3.3198 3.2354 4.9067 5.7002 1.3384 2.0772 1.156 3.2149 1.2837 5.4722 0.073 1.2837 0.15276 2.9025-0.3671 4.1041-0.31465 0.72962-1.5071 2.5263-2.2276 2.8341-0.34885 0.14821-0.91887 0.12769-1.2996 0.12997h-1.596c-4.1725 7e-3 -5.8005 1.5938-7.9803 1.8241 0-1.1628-0.16417-3.0849 0.47653-4.0563 0.44006-0.67034 1.0648-0.82311 1.5436-1.653l0.97587-2.597c0.32605-0.38534 1.0853-0.46058 1.5641-0.51986 2.0179-0.25309 2.654 0.0616 4.3322 1.0739-2.157-2.1296-2.8022-2.0521-5.7002-2.0521 0.20292-1.2951 0.61334-2.1501 1.5208-3.1192 0.71138-0.75927 1.9312-1.3589 1.8127-2.581-0.18013-1.8537-3.0621-2.6221-5.3855-0.63614-2.4442 2.0886-3.6116 6.1562-3.6481 9.3004-0.0319 2.7361 9e-3 6.5735 1.0511 9.1203 0.43549 1.0648 2.5446 3.6664 3.3472 4.7882l7.5881 11.172c2.6107 4.5488 3.9879 9.9753 7.8526 13.66 1.1058 1.0534 3.2446 2.7201 4.7859 2.9367 1.7192 0.23941 4.3937-1.0397 5.7002-1.0785 4.2569-0.12768 5.2031 4.1292 5.2442 7.5106v1.8241c-0.0182 1.3908-0.3215 3.7598-0.88923 5.0162-0.70911 1.5619-2.0202 2.9071-3.2149 4.1041-3.0576 3.0622-5.7321 4.7517-9.5763 6.6692-1.8104 0.90291-5.568 2.3758-7.5243 2.6836h2.7361l6.6122-0.91659c0.88695 1.3293 1.4706 2.296 2.7361 3.3449 1.4478 1.2016 3.1534 1.514 3.3745 3.7234 0.38077 3.794-5.3719 4.7312-8.1627 4.5396l-2.2801-0.15733c-2.6654-0.0798-5.3263-0.33289-7.9803 0l-12.312 2.8159c-4.1725 0.69998-9.378 0.38989-13.452-0.75699-4.6263-1.2996-7.3327-5.6158-9.8043-9.4053-0.65894-1.0101-2.312-3.4612-2.4556-4.5602-0.1824-1.3794 0.99412-5.9647 1.6166-7.2962 0.41497-0.88923 0.98043-1.6941 1.5231-2.5081-1.2768 1.2814-2.0224 1.9176-2.6836 3.6481-0.54494 1.4273-0.84135 3.6572-1.6485 4.7882-1.3042-2.2892-3.8146-7.4627-6.1562-8.5161-0.96447-0.4355-2.1547-0.37622-3.1921-0.37622 1.1697 0.51302 2.4328 0.77067 3.411 1.6439 1.5915 1.425 4.0129 6.7057 5.0823 8.8444 2.5058 5.0139 5.5771 10.89 10.203 14.253 2.9687 2.1592 8.4363 3.2628 12.084 3.3038 1.6097 0.0182 3.2058-0.22117 4.7882-0.5153 3.1876-0.59282 7.3236-1.954 10.488-1.9928h4.7882l4.3322 0.41953c0.71822 0.0752 2.7612 0.14137 3.2263 0.6293 0.59738 0.62246 0.86643 3.2993 0.87783 4.1953 0.0205 1.742-0.29185 5.8347-1.8492 6.8608-1.3612 0.92343-5.1233 0.0547-6.8152 0l-6.1562 0.39673c-4.9523 0.4811-9.9252 1.1013-14.82 2.0452-2.2345 0.43094-6.1402 0.94395-7.7523 2.5537 1.457 0 3.4566 0.0775 4.7882 0.69314 1.2221 0.56774 2.5286 1.9107 3.8761 1.9791 1.8035 0.0935 4.1406-2.1524 6.6122-2.369 1.2837-0.114 3.1511 0.63842 4.5602 0.83679-0.0547 1.197-0.57914 3.126-0.31009 4.1041 0.32605 1.1879 1.3954 2.3713 2.043 3.4201 1.2632 2.1159 1.669 5.0412 0 7.0682-0.5609 0.70454-1.2677 1.2632-1.9609 1.8423-0.84591 0.70682-1.498 1.3361-2.5081 1.8058 0 0-0.228-2.7361-0.228-2.7361-1.3794 2.3964-2.3964 3.8465-5.0162 5.0162 0 0 1.5276-5.0162 1.5276-5.0162s-0.38762-5.2442-0.38762-5.2442c-0.82766 2.882-0.0137 4.624-2.7748 7.5037-2.5491 2.6609-6.236 3.4178-9.0816 5.6136-1.4159 1.0922-2.8136 2.8136-2.9413 4.6673-0.14821 2.1228 1.4296 4.0061 2.2573 5.9282-3.7462-1.4342-5.682-4.7654-5.7002-8.6643v-1.8241c0-0.52442 0.0479-1.3088-0.23257-1.7625-0.36709-0.59282-1.425-0.88239-2.0475-1.1948-0.93711-0.46742-2.353-1.3977-3.1921-2.0361-2.8387-2.157-4.8816-5.2351-3.7348-8.9151 0.35341-1.1309 1.229-2.2299 1.9107-3.1921-1.0716 0.45373-2.2459 1.0374-3.4201 1.0922-0.35114 0.0502-0.79347 0.0365-1.14 0-3.0302-0.57002-1.8332-3.5159-1.8241-5.6523v-2.5081c-0.93028 1.1355-1.9426 2.41-3.1921 3.2035-1.6075 1.0215-3.5296 1.4296-4.3299 3.4087-0.6863 1.6941 0.36481 4.8862 0.45373 6.8402-1.8058-1.1286-4.7448-2.7726-5.1666-5.0162-0.33973-1.8081 0.86871-3.0051 1.514-4.5602 1.1948-2.8706 0.95307-4.8748-1.0146-7.2962-0.98043-1.2084-2.4921-2.7498-3.997-3.2423-2.7064-0.88011-5.5908-0.26677-7.9301-2.9231-1.425-1.6211-1.1378-3.566 0-5.2351 1.0078-1.4775 2.5058-2.8455 1.2654-4.7654-1.1902-1.8446-3.3335-0.70683-4.9386-1.6553-1.1765-0.69314-0.82767-1.8491-0.99867-2.6996-0.13909-0.67719-0.54266-1.2882-0.96903-1.8241-0.59282-0.74559-1.2016-1.3224-2.1615-1.5185-0.92799-0.18924-1.8674 0.11173-2.711-0.47425-1.1674-0.80943-1.1628-2.4374-1.1651-3.7074-2e-3 -1.3133 0.22573-4.4393-0.42182-5.4631-0.65666-1.0352-1.5618-1.058-2.2641-1.6986-0.87783-0.80259-0.9964-1.9791-0.95307-3.0986l0.40585-3.6481s-1.3247-8.6643-1.3247-8.6643c-0.016-0.7547 0.15277-3.2765 0.4583-3.8738 0.33517-0.6521 1.2472-1.3293 1.8195-1.8081l3.3563-3.0211c1.9814-2.0338 5.2122-6.3204 6.4481-8.8535h0.45601c1.7101 5.1325 2.5172 7.4239 6.1562 11.628-2.7361-4.8064-4.168-8.2904-4.1041-13.908l1.3065-9.5763c0.61106-4.1452 0.51757-4.8155 0.51757-8.8923l-1.571 7.9803c-1.0967 4.3846-2.7498 8.4431-5.0868 12.312-4.7084 7.791-11.925 14.232-20.475 17.461l-11.4 3.1078c-3.4292 1.3749-4.6012 4.0266-7.2962 4.9751-1.6964 0.59738-2.4442-0.53582-4.1041-0.35341-2.3576 0.25764-4.2866 1.6918-6.3842 2.6266 0-0.85959-0.0661-2.1706 0.18241-2.9641 0.40129-1.2768 2.8364-3.6048 3.9217-4.4393 1.1264-0.86871 2.4169-1.1697 3.2605-2.4055 0 0 1.9974-6.8357 1.9974-6.8357 1.0238-2.6631 2.4876-2.8775 3.395-4.7882 0.71595-1.5048 0.4469-4.8429 0.46742-6.6122 0.0228-1.8332 0.67946-3.7256 1.2039-5.4722 0 0 2.7452-8.2083 2.7452-8.2083 2.3052-6.2383 6.594-15.263 11.12-20.065 2.9367-3.1146 10.495-7.6132 14.572-9.1636 3.4862-1.3247 7.0181-0.85502 8.6643-1.27 4.8953-1.2312 9.3962-3.3038 14.592-3.2468 2.3006 0.0274 3.4087 0.6521 5.2442 0.87555 1.8514 0.22573 4.355-0.0661 6.1562-0.52898 3.5136-0.90291 4.5009-2.8296 9.8043-3.5683 0.4241-0.0593 1.1834-0.20521 1.5824-0.15732 1.1218 0.1368 1.0739 1.3521 1.3247 2.239 0.4697 1.6759 1.2495 3.1055 2.5674 4.2638 1.441 1.2654 3.1967 2.3029 5.0139 2.9139 2.0316 0.68402 5.1484 1.3521 6.8402 2.5788 1.2426 0.90064 2.0658 2.6289 0.64983 3.8077-0.68859 0.57458-1.8355 0.72735-2.7019 0.80031 1.0534 0.75243 2.3074 1.425 3.6481 1.2905 0.63386-0.0616 1.7215-0.39446 2.2801-0.69999 0.57686-0.31693 1.0648-0.7319 1.3863-1.2791 0.94852-1.3133 1.1127-3.0941 0-4.2866-0.98727-0.95991-3.8077-2.1615-2.7133-4.3732 0.5039-1.0192 2.2413-2.41 3.1511-3.1465 1.954-1.5824 4.6058-3.7781 5.4836-6.2018 0.27133-0.7547 0.26221-1.2677 0.23485-2.0521-0.1026-2.7224-0.87783-3.9286-2.6586-5.9191-3.6458-4.0745-9.3483-7.4672-14.688-8.6734 0.91203-1.2472 2.1889-2.1319 3.4201-3.0485 5.7025-4.2409 10.639-4.9706 17.557-3.8852 1.7739 0.27817 4.2979 1.026 5.9282 1.7602 0.63842 0.28729 1.8856 1.1879 2.5081 0.84135zm75.015 36.253c-1.229-0.96675-1.7785-2.2117-2.7566-3.4201-1.9974-2.4625-5.1758-5.1917-8.4158-5.7549 0.99412-1.5254 3.6572-0.79575 5.0162 0 3.0713 1.6166 5.9898 5.6227 6.1562 9.175zm-202.7-8.8923v0.22801s-0.228-0.22801-0.228-0.22801h0.228zm142.73 48.794-3.6481-2.2801v0.91203c-1.685-3.2947-4.6605-3.2833-6.7832-5.039-0.85959-0.71367-1.5824-3.4087-1.9563-4.5374-0.18013-0.54038-0.49022-1.2609-0.30097-1.8241 0.21204-0.63614 1.4615-1.7693 1.9723-2.2801 0 0-2.7361 0.5837-2.7361 0.5837-1.1036 0.40814-1.783 1.0899-2.7361 1.5436-0.74559 0.35569-3.0302 0.82538-3.7895 0.47881-0.40814-0.18468-0.68403-0.62702-0.87783-1.0146-0.21889-0.4355-0.25537-0.67263-0.34886-1.1355 2.7338 0.4925 5.7139 0.36253 6.0627-3.1921 0.0661-0.67946-0.23029-1.799-0.36253-2.5081 0.69998 0.0342 1.3749 0.0661 1.9791 0.47654 1.1651 0.78891 0.83679 1.612 2.809 2.0316-2e-3 -3.1556-0.66806-5.1575-3.8761-6.3842 0.68174-1.441 1.7557-1.986 2.4146-3.4201 0.68859-1.5049 0.44918-3.0097 0.34201-4.5602-0.10716-1.5527-0.0388-2.8296-0.67718-4.3322-1.3749-3.2354-4.152-4.3344-5.2487-6.6122-0.43777-1.0853-0.7547-2.7931 0-3.8533 1.5048-2.3644 4.6286-1.1834 6.8174-0.67946 2.9801 0.6863 4.4348 1.1332 7.0682 2.8091 0.6977 0.44233 1.8925 1.2312 2.2755 1.9609 0.32377 0.62019 0.20977 1.571 0.24169 2.271l0.21889 2.9641v7.7523l0.22801 3.6481v3.6481s0.228 2.9641 0.228 2.9641l0.68403 19.609zm22.117-39.673-3.4292-4.0836c-2.1706-2.1136-3.5318-2.5149-6.1471-3.6686 1.2221-0.4811 2.5149 0.11856 3.6481 0.62246 3.2856 1.4592 5.609 3.3358 5.9282 7.1298zm-93.939-5.9282c-0.94395 1.2632-1.9153 2.4739-3.4201 3.0827-1.0716 0.43321-1.7967 0.2622-2.4602 0.63614-0.54266 0.30781-0.76611 0.82767-1.2358 1.1628-0.60194 0.43093-1.2996 0.36025-2.0042 0.36253-1.5573 2e-3 -2.3713-0.13909-3.6458 0.95991-0.78434 0.67947-2.5263 2.8889-2.9504 3.8282-0.31009 0.68859-0.32833 1.4752-0.68402 2.0224-0.55862 0.85731-1.5003 0.84819-2.4078 2.0863-0.72735 0.98728-0.67947 2.0635-1.2221 2.9595-0.69542 1.1446-2.353 2.41-3.4543 3.1921 0.71822 0 1.1902-0.30781 1.8241-0.6293 3.2377-1.6394 3.0758-2.3439 5.4722-4.3367 1.1127-0.92571 1.9768-0.86415 2.5126-1.6941 0.29869-0.46514 0.42638-1.5847 0.66806-2.2322 0.88467-2.3781 2.2117-4.5442 5.0276-4.1041l-0.5153 6.6122-1.5368 2.2801c0.96903-0.32377 2.0566-0.64298 2.9641-1.0967 3.9308-1.9654 6.2132-5.6272 7.0682-9.8477 0.26905-1.3316 0.5267-4.0084 0-5.2442zm121.53 28.957 2.467-2.2824c1.2153-1.3544 2.0202-3.2149 2.255-5.0139 0.78662-6.0194-5.0139-11.852-9.7382-9.4897-0.76154 0.38077-1.441 0.90747-2.0316 1.5185-0.63386 0.65894-1.1651 1.4342-1.5368 2.271-0.49478 1.1104-0.74786 2.6631-0.76382 3.8761-0.0365 3.2651 0.35113 2.7612 0.45601 5.0162-1.3452-0.57914-3.2993-1.4638-4.2843-2.5286-1.9495-2.1091-2.5651-4.9569-2.3622-7.7317 0.0593-0.82539 5e-3 -1.1993 0.18697-2.0521 1.2267-5.7754 6.2292-10.45 12.16-10.828 1.2358-0.0775 2.7133 0.23941 3.8761 0.64526 6.6191 2.312 9.4988 9.8226 9.5763 16.339 0.0319 2.7931-0.51529 6.3409-1.6667 8.8923-0.35797 0.79119-1.0352 2.271-1.7944 2.6494-0.72279 0.44918-1.5071 0.15961-2.239 0l-4.5602-1.2814zm-106.48-25.537c0.0524 1.1127 0.20977 2.4853 1.1879 3.1921l1.7557 0.84819c1.0876 0.73646 0.96447 1.3224 2.5286 1.3179 0.40585 0 0.70226-0.0821 1.0922 0.12768 0.78435 0.4241 1.7078 2.9618 2.157 3.8625 0.6179 1.2426 1.3247 2.5423 1.7192 3.8761 0.36253 1.2153 0.25081 1.897 0.80942 3.1921 0.72051 1.6758 2.7247 4.5442 3.7986 6.1562 2e-3 -0.89835-0.8345-2.442-1.1309-3.4201-0.48566-1.596-0.74559-4.298-1.4205-5.6911-0.6179-1.2791-1.3886-1.2791-2.4055-3.2012-1.6371-3.0964-2.6244-6.4914-3.7074-9.8043-0.5381 0.35341-1.2062 0.88923-1.8241 1.0397-1.2996 0.31237-3.338-0.96903-4.5602-1.4957zm68.63 0.30097c6.1197-0.13681 9.8043 6.2862 10.942 11.555 0.59282 2.7589 1.1834 5.3468-1.5938 7.0705-0.39445 0.24397-1.115 0.56318-1.5824 0.57458-0.27817 7e-3 -0.50618-0.0342-0.69315-0.25993l-0.60878-3.509c-0.6407-2.6928-2.5947-6.138-5.552-6.6761-2.0658-0.37622-3.8602 1.6713-4.38 3.484-0.20292 0.70454-0.18012 1.3293-0.18012 2.0521-5e-3 2.442-0.32833 4.1611 0.86415 6.3842 0.56774 1.0557 1.083 1.6325 1.8765 2.5081 0.30781 0.33973 0.86187 0.85503 0.86187 1.3475 0 0.41954-0.38077 0.72963-0.6521 0.9964-0.57458 0.56774-2.157 2.214-2.9299 2.2573-0.73875 0.0388-1.3361-1.0785-1.6394-1.6371-1.0306-1.8879-1.6918-4.4804-1.9654-6.6122-0.25993-2.0475-0.28957-3.2035-0.29185-5.2442-7e-3 -4.0905-0.49934-7.6406 2.0886-11.172 0.74786-1.0215 1.5641-1.8263 2.6996-2.4169 0.88923-0.46057 1.7625-0.56774 2.7361-0.70226zm-84.135 12.923c0.95079 0.12996 2.6905-0.81399 3.6481-1.1834 2.6175-1.0101 3.468-1.0671 6.1562-1.3886 1.197-0.14364 2.5788-0.31465 3.639 0.4241 0.98955 0.69314 1.3612 1.9221 1.539 3.0599 0.17557 1.1309 0.28957 2.2755 0.29413 3.4201 0 0-2.5081 0.43777-2.5081 0.43777h-4.1041c-2.4511 0.0228-2.9983 0.61562-5.2442 0.89607-1.4615 0.18013-3.8009 0.40358-4.9455 1.3931-0.61106 0.53126-0.4925 1.1036-0.56546 1.8332-0.23257 2.3234-0.0844 3.281 1.6394 5.0139 2.7817 2.7954 7.2301 4.5146 11.168 4.526h3.6481c2.6905-0.48566 4.3732-2.3302 4.7882-4.9797-1.0032 1.514-1.4 2.5149-3.1921 3.4201-1.6348 0.82539-3.9217 0.79575-5.7002 0.55178-4.4621-0.60878-7.9506-2.1456-10.26-6.252l2.7361-1.5664 3.2468-0.48566c-0.15961 1.3065-0.47654 2.1205 0 3.4201 2.043 4.8657 10.429 2.8136 8.6894-2.7361-0.28957-0.92799-1.0169-1.6052-1.6758-2.2801 2.0772-0.16873 4.3253-1.0876 5.9282 0.68402 0.35113-1.4114-1.2404-2.7315-1.5664-4.1041-0.68858-2.898-0.72734-7.9233-4.8178-7.9803-5.2966-0.0707-8.1513 0.95307-12.54 3.8761zm120.4-2.8661c2.0384 0.0251 3.4566 1.4706 4.1041 3.3221 0.20293 0.58142 0.52214 2.8683-0.50618 2.8866-0.90747 0.016-1.2837-1.7853-1.6485-2.4214-0.70683-1.2267-4.8497-2.9778-1.9495-3.7872zm-34.894 0.58598c2.6494 0.0684 3.7872 2.1 3.7462 4.5602-0.0114 0.59966-0.39902 2.2026-1.3316 1.5778-0.63158-0.42181-0.1824-1.954-1.172-3.4019-0.85731-1.2495-1.1469-1.0944-1.2426-2.7361zm-85.959 2.5081v0.228l0.228-0.228h-0.228zm-23.029 3.6481v0.22801l0.22801-0.22801h-0.22801zm103.97 25.993 5.4722 4.2295c1.9928 1.1811 4.7676 1.6873 7.0682 1.6987 6.5507 0.0296 15.571-2.2231 21.205-5.5748 2.6312-1.5641 4.6719-3.484 7.0682-5.3149 2.3074-1.7648 4.6308-2.3188 6.3842-4.6149-3.4566-0.84135-4.4074 0.89607-6.8402 2.9071l-5.0162 3.7051c-5.3696 3.5957-8.9105 4.9409-15.277 5.9852l-6.3842 0.58598c-2.0794-0.1482-4.4097-0.18241-6.3842-0.89151-3.0006-1.0762-4.9113-2.9253-7.5243-4.4348-2.2094-1.2746-3.7849-0.42638-4.3618-1.7511-0.33517-0.66578-0.10488-1.7625 0-2.4579 0.47198-2.2664 0.77751-3.4384 2.3508-5.2442 0 0 3.3791-3.4224 3.3791-3.4224 3.7849-3.712 6.9679-6.6829 12.084-8.5024 3.4726-1.2358 7.7933-1.7465 11.4-0.86643 4.6354 1.1309 9.02 4.1931 13.452 6.081l7.0682 2.3736c3.5136 1.0808 5.78 1.4159 6.3181 5.7048 0.16417 1.3042-0.28501 3.0188-0.52213 4.3322-0.31009 1.726-0.3785 3.9263-1.7169 5.1963-1.1742 1.115-3.6983 1.9267-5.2191 2.5582-1.7192 0.71366-3.0462 1.6074-4.5602 2.67l-8.4363 5.796c-5.967 3.3289-14.668 5.1142-20.749 1.1765-2.3143-1.498-4.0631-3.8556-5.7481-5.9966-1.099-1.3954-3.9742-4.5556-4.5123-5.9282zm-30.097-22.345c-0.91887 1.9084-1.2632 2.068-1.368 4.3321-0.96219-0.89151-1.9677-2.3713-2.2801-3.6481 1.7579-0.69771 1.7739-0.68174 3.6481-0.68402zm52.898 1.368c0.0479 0.28273 0.0274 0.49706 0.22572 0.74787 0.41498 0.52442 2.9367 1.3954 3.6208 1.2039 1.2563-0.35569 0.25765-1.286-0.43094-1.6029l-0.90747-0.31237c-0.57458-0.15732-0.99867-0.24169-1.596-0.18696l-0.91203 0.15048zm-12.312 2.2801c1.0808-0.52442 1.3475-0.88467 1.596-2.0521-1.3635 0.29641-1.5162 0.71822-1.596 2.0521zm-69.314 5.0162c-0.40357 2.6084-1.3316 4.1201-3.6481 5.4608 0.63842 0.24397 0.94167 0.21204 1.596 0 2.0475-0.72051 2.8136-3.541 2.0521-5.4608zm36.709 1.14s2.0566 7.0682 2.0566 7.0682c0.87099 2.7999 1.5869 3.9947 1.5915 7.0682v1.8241c-0.91887-0.92115-3.1078-5.5566-3.9742-7.0682-1.0352-1.8104-3.8351-5.625-4.2341-7.2962 2.6517-0.22344 2.5856-0.84134 4.5602-1.596zm-40.813 4.5602v0.228l0.22801-0.228h-0.22801zm45.146 3.4201c0.95991 0.45374 3.3905 1.6417 3.8624 2.5491 0.30553 0.59054-0.0228 2.0156-0.11856 2.695l-0.77979 6.3842c-0.33745-0.18013-0.47881-0.19381-0.74786-0.52214-1.1013-1.3498-0.90519-5.7846-1.4684-7.6861-0.30553-1.0329-1.0352-2.3622-0.74787-3.4201zm11.628 149.57c1.1606-0.23485 2.4032-0.54494 3.4201-1.1674 5.0276-3.0736 4.1498-8.2904 1.286-12.513-2.4192-3.5683-9.3301-8.7601-12.914-11.628l-7.9803-6.6419-5.0162-4.3025c0.88923-1.2153 2.3188-2.2778 3.411-3.4201 1.4-1.4638 2.4762-3.0074 3.4292-4.7882-2.043 1.9974-4.9455 3.6914-7.7523 4.3322 0.89151-1.8879 2.2915-2.2254 2.7361-4.5602-1.8355 0.53126-5.3628 0.99639-6.7034-0.75927-0.5381-0.70226-0.13909-2.5879-0.13681-3.5729 2e-3 -1.3772 0.27361-6.464 0.78207-7.5151 0.34885-0.72051 1.2791-1.384 1.8491-2.0635 1.4912-1.7785 1.9791-3.167 1.9267-5.4699-0.0547-2.3758-1.0283-3.4064-1.1788-4.3322-0.10488-0.63842 0.24397-1.6485 0.43321-2.2801 0 0 1.7329-5.0162 1.7329-5.0162 0.28273-0.76382 0.57914-1.9563 1.3452-2.3485 2.1775-1.1127 7.9575-0.0114 9.9069-1.8446 1.7055-1.6029 2.3644-5.8507 2.3553-8.1194-5e-3 -1.0169-0.56546-4.1611-0.31921-4.738 0.32605-0.76155 2.2869-1.3635 3.0553-1.7169 1.8856-0.86643 4.0289-2.2801 4.8702-4.2615 2.3188-5.4448-4.9455-6.3135-5.7823-10.716 2.4465-1.4068 4.7631-3.5364 6.8402-5.4334 1.3566-1.2426 3.0485-2.8911 3.7712-4.5989 1.311-3.1055 1.2404-6.7559 0.69086-10.032l-0.76382-3.6481 0.38761-3.4201v-4.7882c2.0726 0.97132 5.2898 5.4517 7.0956 7.294 3.2696 3.3335 6.8083 4.6514 11.391 4.9774l3.8761-0.38533c2.9162-0.40586 6.993-1.6736 9.5763-3.0644l10.716-6.7946 6.6122-2.7703c0.66351-0.33745 1.6622-1.0762 2.3599-0.48338 0.41042 0.34657 1.14 2.2345 1.3794 2.8227l2.7019 5.9282c3.1397 6.2816 6.2839 12.657 8.3747 19.381l2.3166 10.032c0.35797 1.0466 3.2696 4.3185 4.152 5.4722 1.9677 2.5765 4.4234 6.6259 5.7777 9.5763 2.825 6.1539 4.5077 12.682 5.3787 19.381 0 0 0.39217 4.1041 0.39217 4.1041l0.22801 3.8761v6.6122l-0.22801 3.1921s-0.62018 8.6643-0.62018 8.6643c-0.0866 0.71594-0.10944 2.5081-0.6863 3.0143-0.48794 0.33745-1.7579 0.12541-2.3416 0-1.6052-0.16872-3.1693-0.28045-4.7882-0.27817-1.3658 2e-3 -1.8834 0.0182-3.1921 0.50846-0.84819 0.31693-1.5573 0.6521-2.2801 1.2084-3.7325 2.8706-3.6481 5.6979-3.6481 9.9115v5.4722l0.22801 3.8761v7.9803l-0.22573 3.1921c-0.0228 0.99183-0.0365 3.2605-0.46285 4.1041-0.52442 1.0397-2.7178 2.8045-3.6436 3.6686-2.8866 2.6882-5.7184 5.2305-8.8923 7.5881-6.9611 5.1712-16.727 9.6151-25.537 9.72h-9.1203c-2.5058-0.0296-7.0933-1.1765-9.5763-1.8902-0.80031-0.23029-3.2149-0.89835-3.7872-1.3202-0.52214-0.38762-1.2632-1.8606-1.6394-2.4898l-3.0941-4.5602c-1.1606-1.5482-3.9331-4.5465-4.4758-6.1562zm-51.986-124.04-0.68402-4.1041 1.8241 0.91203c0.99868-2.3485 0.44006-3.1944 1.0146-4.3321 0.87099-1.7192 3.1351-2.4032 4.9136-1.8697 0.6521 0.19381 1.4159 0.65211 2.0521 0.95764-0.37166-0.81627-0.64983-1.3772-1.3772-1.9563-1.5641-1.2472-4.6878-1.2563-6.366-0.21433-1.1469 0.71139-1.7534 1.9654-2.7452 2.8547 0-0.90291-0.0479-1.6348 0.25309-2.5081 1.343-3.9194 5.8119-5.1986 9.5512-5.2442 2.2299-0.0251 4.5852 0.21205 6.6122 1.2244l5.0162 3.3791c4.697 2.9117 3.6504 1.4319 9.1203 5.7823 2.4648 1.9609 3.8921 2.9527 7.0682 2.3827-1.0078-0.43093-1.9244-0.37621-2.9641-0.95991-1.5026-0.84363-4.0768-3.5387-5.7002-4.8155l-6.3842-4.0813-5.0162-3.3722c-2.6973-1.3863-6.1357-1.6257-9.1203-1.5915-2.9117 0.0342-7.4467 1.8036-9.2594 4.1041-3.1397 3.9856-1.8058 10.582 2.1912 13.452zm-34.657-11.628v0.228l0.22801-0.228h-0.22801zm46.742 9.5763c5.0595 0.12541 8.7965 6.2999 9.8043 10.716 0.4811-1.213 0.0433-3.0736-0.23029-4.3322-1.1081-5.0823-5.3445-9.5854-10.714-9.7952-1.0785-0.041-2.9778 0.18468-3.8396 0.83451-1.6485 1.2176-1.2335 3.7302 0 5.0686 1.5687 1.6576 4.5328 1.8377 5.267 0 0.33973-0.83907 0.0114-1.6987-0.28729-2.4921zm-35.569 5.2442c2.0156-0.69542 1.2404-1.5162 2.1684-2.3143 0.54266-0.46513 3.1921-0.99411 3.9878-1.1058-1.2426-0.49934-5.1005-0.89607-5.9875 0.28045-0.6179 0.81626-0.39217 2.2185-0.16873 3.1397zm45.602 6.1562v0.22801l0.22801-0.22801h-0.22801zm112.86 14.136 4.1041 2.1228c4.1292 2.2322 7.7363 4.6149 10.906 8.1376 6.5872 7.319 8.3679 18.35 6.781 27.817-0.64298 3.8191-1.8697 7.5357-3.1647 11.172l-1.7534 4.7882c3.7051 0.0114 7.3008 1.1036 10.944 1.596-1.4045 0.55862-4.7745 0.43778-6.3842 0.45602l-5.4722 0.51986c-3.908 0.65438-4.966 2.2504-8.2083 3.8123 0.45146-2.1524 2.9778-4.0426 4.7882-5.1393 1.0739-0.64982 1.9677-0.74558 2.6152-1.9335 0.79118-1.4501 2.1752-6.4025 2.6631-8.2037 2.1684-8.0031 3.2924-15.067 1.1332-23.257-1.6325-6.1858-5.3149-11.904-10.516-15.666l-6.3842-4.2455c-0.71138-0.47425-2.0384-1.026-2.0521-1.9768zm-151.4 39.217v0.22801s-0.228-0.22801-0.228-0.22801h0.228zm38.533 7.5243s2.0521 6.8402 2.0521 6.8402c-1.6462-1.1902-4.8976-5.3194-2.0521-6.8402zm108.53 15.345c2.5058-0.24853 5.2556 0.31009 7.7523 0.67719 0.5951 0.0866 2.3895 0.26677 2.6791 0.7547 0.29413 0.4013 0.0479 1.2404 0 1.6918l-0.39902 3.4201c-0.0137 1.254 0.21205 4.0813 0.55634 5.2442 1.7648 5.992 6.9565 7.1321 12.44 7.0682 6.3363-0.0752 12.597-4.7813 16.321-9.5763 0.78207-1.0101 1.5117-2.0475 2.0863-3.1921 0.26905-0.5381 0.72734-1.7944 1.1218-2.1433 0.92116-0.81399 2.955 0.51986 3.7279 1.1241 4.2752 3.338 2.5218 10.418 4.7631 15.156 0.83907 1.7739 2.1091 3.142 3.4247 4.5602 2.7726 2.9846 5.8712 5.4768 9.1408 7.8959 2.5719 1.9039 5.9898 3.7712 6.1471 7.3806 0.0798 1.8446-0.64982 3.2537-1.6006 4.7882-2.369 3.8168-6.3249 5.9624-10.247 7.9233l-4.3322 2.2801c-6.1653 3.1032-11.941 5.9989-17.329 10.413-5.1165 4.1931-11.389 11.261-17.101 13.968-3.1625 1.5003-6.3409 1.9358-9.8043 1.897-2.3257-0.0274-4.8794-0.51758-7.0682-1.2974-3.9559-1.4068-8.1011-3.6299-9.9594-7.5949-1.539-3.2879-1.4456-6.521-1.441-10.032 5e-3 -2.7771 0.73419-7.2096 1.197-10.032 1.1081-6.7878 2.4488-13.665 2.9276-20.521 0 0 0.20749-2.2801 0.20749-2.2801v-4.7882s0.21661-2.9641 0.21661-2.9641v-2.9641s-0.21661-2.7361-0.21661-2.7361v-10.26c5e-3 -3.3905 1.4091-5.2214 4.7882-5.8598zm-116.51 1.5277c2.6586 1.1856 5.267 3.5683 7.5242 4.282 0.69087 0.21889 2.9299 0.6635 3.6481 0.71367 0.79803 0.057 1.7625-0.12313 2.4351 0.38533 0.66578 0.5039 2.882 3.9628 3.4931 4.8794l7.205 11.4c2.5582 4.2638 5.6956 9.7907 8.6118 13.68 4.1315 5.5087 10.438 12.26 12.287 18.925 0.7547 2.7224 0.65666 4.5305 0.62474 7.2962-0.0593 4.9158-2.2892 9.1294-5.7002 12.54-1.2084 1.2084-2.1478 2.125-3.6481 2.9938-2.7475 1.5892-5.9556 2.4032-9.1203 2.4762-5.9761 0.13453-14.663-4.2478-20.521-6.3705-6.0513-2.1912-16.786-4.2934-23.485-5.9692 0 0-15.961-4.681-15.961-4.681-2.5856-0.80715-5.4448-1.4798-7.2073-3.7256-3.0143-3.8419 0.0593-9.077 1.6371-12.768 1.5619-3.6481 2.1342-6.553 2.3576-10.488 0 0-0.20748-3.1921-0.20748-3.1921s-0.72279-8.8923-0.72279-8.8923c-0.18696-1.8651-0.49705-3.6002-0.25309-5.4722 0.38762-2.9915 0.67947-5.1826 3.256-7.1754 1.6462-1.2746 3.6572-1.7055 5.7002-1.7169l3.8761-0.22801h3.8761c3.6299-7e-3 5.6979-2.3052 7.9803-4.7882 1.7443 0.97815 2.7064 1.8833 4.7882 2.353 0.98271 0.22116 2.3827 0.15504 3.4201 0.15504l-3.5592-1.8993s-1.685-3.3449-1.685-3.3449l4.5602 2.695c3.0097 1.384 7.408 2.084 10.716 2.0931-2.3302-1.099-4.5716-1.7443-5.5953-4.3322-0.24853-0.63158-0.41042-1.1492-0.33289-1.8241zm-58.598 182.41v9.1203c0 0.5153 0.0502 1.2951-0.23257 1.7351-0.47882 0.74103-2.9778 1.4638-3.8716 1.7602-3.8328 1.2791-7.1731 1.856-11.172 2.2436l-2.0521 0.18924h-5.7002c-7.2506-0.0114-17.128-2.6152-22.051-8.2083-4.1019-4.6628-5.5702-9.6675-6.0148-15.733 0 0-0.20749-2.2801-0.20749-2.2801-0.0707-6.0969-0.40813-14.066 1.2381-19.837 2.3872-8.3679 7.9712-14.859 16.09-18.138 3.3996-1.3726 6.863-1.9267 10.488-2.1752l2.2801-0.20521s2.2801 0.23485 2.2801 0.23485h2.0521c5.1416 0.51986 12.265 2.0931 15.577 6.3751 2.3302 3.012 2.1615 8.9607 5.6272 10.716 3.0143 1.5254 8.0601 0.62018 10.14-2.0521 1.2837-1.6508 1.9198-4.5442 1.9449-6.6122v-15.505c-2e-3 -2.1159-0.44234-4.8201-1.6211-6.6122-1.8765-2.8547-6.0513-3.753-9.0952-2.2983-1.1697 0.55862-1.9153 1.4547-2.597 2.5263-0.49249 0.77751-0.86643 1.7511-1.9631 1.4843l-3.6481-1.4729c-2.5879-0.94851-5.267-1.7055-7.9803-2.1957-14.203-2.5651-28.85-0.29413-40.357 8.8991-8.8079 7.0363-14.768 17.454-16.353 28.626-0.78891 5.5771-0.58826 14.647-0.51986 20.521l0.20749 2.2801c0.54266 7.7682 2.8045 15.363 7.5197 21.661 7.1024 9.4828 18.222 14.173 29.666 15.762 0 0 6.3842 0.65438 6.3842 0.65438l12.768-0.26677c6.5187-0.63386 12.725-2.7064 18.697-5.3012l6.1562-2.9253c0.56546-0.28045 2.1912-1.001 2.5104-1.4547 0.28273-0.40813 0.22573-1.1948 0.22573-1.6804v-17.785c0-0.5039-0.0502-1.3019 0.23257-1.7283 0.32377-0.48794 1.0739-0.66806 1.5915-0.88239 0.86871-0.36253 1.5504-0.77295 2.2801-1.3726 1.9654-1.6143 2.7064-3.5546 2.7361-6.049 0.0182-1.7602-0.17785-3.4976-1.1697-5.0139-1.8058-2.7589-6.2702-3.4178-9.3187-3.4224h-29.641c-2.9345 0.0137-6.4686 0.69086-8.4773 3.0029-2.4556 2.8273-2.027 8.6073 0.72962 11.093 1.7648 1.5915 4.7266 2.2938 7.0637 2.3211h17.557zm292.31 0v9.1203c0 0.51302 0.0502 1.2951-0.23257 1.7351-0.44005 0.68174-3.0234 1.4752-3.8716 1.7602-3.908 1.3156-9.0998 2.3827-13.224 2.4328h-5.7002l-4.7882-0.42181c-7.9484-0.94851-15.235-3.9924-19.679-10.979-1.0922-1.7192-2.0133-3.965-2.5674-5.9282-0.61334-2.1729-1.2107-6.4139-1.2381-8.6643v-7.0682c0-5.9077 0.0205-11.09 2.4762-16.645 0.92799-2.0977 2.0384-4.1201 3.4543-5.9282 5.6341-7.1891 13.026-10.128 21.886-10.737l2.2801-0.20521 2.5081 0.21661c3.6892 0.16188 7.4992 0.64754 10.944 2.0635 2.9801 1.2244 5.7048 2.7657 7.319 5.6979 1.3224 2.4055 1.5276 8.3474 5.4494 9.6265 0.74559 0.24169 1.7237 0.38533 2.5081 0.40358 1.0739 0.0228 2.1478-0.0912 3.1921-0.33974 3.1169-0.74102 4.6856-3.0371 5.2875-6.0422 0.7091-3.5364 0.41269-10.678 0.41269-14.592 0-3.3608 0.24853-7.8366-1.7785-10.716-1.8719-2.6631-6.3272-3.5866-9.1659-1.97-1.539 0.87783-2.8911 2.8045-3.4201 4.4781-6.8448-3.8944-17.048-5.3354-24.853-5.2442l-2.2801 0.20749c-16.952 1.1651-30.792 10.194-38.312 25.557-5.2693 10.762-4.3436 21.722-4.3253 33.289 0 0 0.20749 2.7361 0.20749 2.7361 0.67718 9.2754 4.1155 18.382 10.776 25.042 7.3487 7.3487 18.074 11.074 28.234 12.16l4.5602 0.41953h8.8923c7.0386-0.0114 16.451-2.654 22.801-5.65l6.1562-2.9573c0.53809-0.26905 1.97-0.89607 2.2824-1.3407 0.28273-0.40813 0.22573-1.1948 0.22573-1.6804v-17.785c0-0.50618-0.0502-1.2996 0.23257-1.7306 0.36253-0.54494 1.6508-0.90747 2.2755-1.229 1.2221-0.62702 2.4192-1.5755 3.1625-2.7407 2.1159-3.3152 1.5505-8.7714-1.7944-11.036-1.8788-1.2723-5.2784-1.7283-7.5242-1.7329h-29.413c-2.7817 5e-3 -6.3249 0.5609-8.3952 2.5765-1.9426 1.8925-2.3827 6.1311-1.5117 8.5959 0.54265 1.539 1.4729 2.727 2.8387 3.623 2.6586 1.7488 6.081 1.6211 9.1203 1.6211h14.592zm-242.6-49.25v62.018l-11.628 0.1938c-2.1889 0.25993-4.4256 0.65438-6.1402 2.1615-3.0895 2.695-2.9003 8.9698 0 11.74 1.8218 1.7306 4.8474 2.3166 7.2803 2.3211h77.979v-32.605c-5e-3 -2.7384-0.62247-5.6911-2.6426-7.677-2.9299-2.882-9.378-2.5377-11.806 0.83679-1.4045 1.954-1.9381 5.5976-1.9677 7.9803v15.049h-34.657v-62.018h10.716c2.255-0.0114 5.0162-0.58826 6.8015-2.0361 3.1511-2.5537 3.3996-8.9949 0.45374-11.799-2.0247-1.9244-5.4585-2.5491-8.1672-2.581h-35.569c-2.6517 5e-3 -6.3888 0.51074-8.4272 2.328-3.2058 2.8569-2.9413 9.5034 0.44689 12.144 2.3781 1.8537 5.5702 1.9449 8.4363 1.9449h8.8923zm83.679 0v46.742c7e-3 4.2866 1.457 9.6288 3.3631 13.452 1.8606 3.7302 4.2888 7.3806 7.3532 10.24 5.1758 4.8292 11.12 7.9461 18.013 9.4646 1.6599 0.36709 4.0198 0.79574 5.7002 0.81626h5.2442c1.7602-2e-3 3.5182-0.30553 5.2442-0.63842 7.2962-1.4091 14.073-4.868 19.369-10.119 6.1608-6.1083 10.231-15.416 10.272-24.128v-12.54-33.289c2.6084 0 5.1735-0.27361 7.2871-1.9791 3.0599-2.4693 3.5273-8.7646 0.84591-11.663-1.897-2.0521-5.6637-2.7429-8.361-2.7748h-18.469c-3.4224 0-7.6223-0.21889-10.716 1.441-2.385 1.2814-3.3882 3.452-3.4201 6.0832-0.0342 2.9367 0.27133 5.495 2.9641 7.2712 3.3221 2.1934 9.5216 1.6211 13.452 1.6211v45.602c-0.0114 7.6041-4.2501 13.179-10.944 16.471-2.4921 1.2267-5.8758 2.1912-8.6643 2.2254-2.6358 0.0296-4.4712-7e-3 -7.0682-0.65894-7.9301-1.9928-15.035-8.532-15.049-17.126v-46.514c4.1361 0 9.9343 0.61106 13.45-1.7215 4.1634-2.7634 3.9582-10.725-0.45374-13.145-3.2491-1.783-7.351-1.5504-10.944-1.5504h-18.241c-2.4534 0.0296-6.0992 0.65894-7.9712 2.328-2.9253 2.6084-3.0143 8.8102-0.21432 11.539 2.1182 2.0612 5.1302 2.5491 7.9575 2.5491z" />
  </g>
</svg>
